Water_Year,NSE_LSTM_PT_IHACRES_UNC_ENSEMBLE_10,KGE_LSTM_PT_IHACRES_UNC_ENSEMBLE_10,RR_LSTM_PT_IHACRES_UNC_ENSEMBLE_10,FHV_LSTM_PT_IHACRES_UNC_ENSEMBLE_10,FLV_LSTM_PT_IHACRES_UNC_ENSEMBLE_10,FMS_LSTM_PT_IHACRES_UNC_ENSEMBLE_10,FDCB_LSTM_PT_IHACRES_UNC_ENSEMBLE_10,FDCB_LT100_LSTM_PT_IHACRES_UNC_ENSEMBLE_10,FDCB_GT100_LSTM_PT_IHACRES_UNC_ENSEMBLE_10,MDFB_LSTM_PT_IHACRES_UNC_ENSEMBLE_10,NSE_PRMSuncal,KGE_PRMSuncal,RR_PRMSuncal,FHV_PRMSuncal,FLV_PRMSuncal,FMS_PRMSuncal,FDCB_PRMSuncal,FDCB_LT100_PRMSuncal,FDCB_GT100_PRMSuncal,MDFB_PRMSuncal,NSE_PRMScalib,KGE_PRMScalib,RR_PRMScalib,FHV_PRMScalib,FLV_PRMScalib,FMS_PRMScalib,FDCB_PRMScalib,FDCB_LT100_PRMScalib,FDCB_GT100_PRMScalib,MDFB_PRMScalib,NSE_SACSMAuncal,KGE_SACSMAuncal,RR_SACSMAuncal,FHV_SACSMAuncal,FLV_SACSMAuncal,FMS_SACSMAuncal,FDCB_SACSMAuncal,FDCB_LT100_SACSMAuncal,FDCB_GT100_SACSMAuncal,MDFB_SACSMAuncal,NSE_SACSMAcalib,KGE_SACSMAcalib,RR_SACSMAcalib,FHV_SACSMAcalib,FLV_SACSMAcalib,FMS_SACSMAcalib,FDCB_SACSMAcalib,FDCB_LT100_SACSMAcalib,FDCB_GT100_SACSMAcalib,MDFB_SACSMAcalib,NSE_IHACRESuncal,KGE_IHACRESuncal,RR_IHACRESuncal,FHV_IHACRESuncal,FLV_IHACRESuncal,FMS_IHACRESuncal,FDCB_IHACRESuncal,FDCB_LT100_IHACRESuncal,FDCB_GT100_IHACRESuncal,MDFB_IHACRESuncal,NSE_IHACREScalib,KGE_IHACREScalib,RR_IHACREScalib,FHV_IHACREScalib,FLV_IHACREScalib,FMS_IHACREScalib,FDCB_IHACREScalib,FDCB_LT100_IHACREScalib,FDCB_GT100_IHACREScalib,MDFB_IHACREScalib
1997,0.996097380299417,0.94818569105911,0.0401154759745256,-3.48659144683825,-180.901345722584,28.2565065913123,0.404438458961928,0.43078943515779,0.0471192217460391,0.600461629480076,-0.279653072550911,0.336946468537981,0.0934739881491629,-77.8867222700262,24.8942956664311,-6.9150067495421,0.903596486797021,0.951556807434991,0.253254538946154,2.8087389722327,-0.640433775896049,0.262401209211485,0.0944829505570591,-82.4778549953456,7.27622905376118,1.14871996151581,0.3379192502572,0.346237807083661,0.225119619690388,3.90147056342579,0.326281873825479,0.157052216609981,0.415574127917147,-80.6785278436715,-196.384008171059,106.423998413959,0.639405703947983,0.646790917466355,0.539262208638854,1.41359806656067,0.591486921096126,0.558811118234629,0.0198093104135994,-59.3539409808113,-25.3022172323206,-1.30716901810727,0.47408718200701,0.48582071644807,0.314980454986237,0.809444205574213,0.641235856506684,0.534730212678902,0.419191781938286,-30.9733433753873,-258.391722186982,67.9044263425772,0.785079389022068,0.817567531677572,0.344540174613426,2.69152304662153,0.592559883848137,0.641580364577658,0.253399499532436,-2.3835517071813,100,550.777910394974,0.906912394062652,0.942827388029989,0.419905075865562,1.16777796225467
1998,0.994700007314923,0.972398460270273,0.00167532593282262,-2.65514555491889,-135.010260004437,-4.36347202792715,0.328122951783343,0.362025429180781,0.0526653229291598,0.82311570110724,-0.320159264006905,0.381229512378788,0.0207375279617905,-66.1698365608677,6.75855315029719,-17.6863056180033,0.636130904683855,0.702412815725128,0.0975903774735072,4.4358922239919,-0.760984617113628,0.272800288125494,0.0540088302675323,-68.726617333119,8.1524521102175,8.46459398072206,0.390019349424072,0.416436892076239,0.175376815375217,7.75237898051296,0.397500453869106,0.362815050039544,0.218836592841851,-73.5197315398545,-117.214476494364,-10.1430293556448,0.479936569992079,0.51231542990542,0.216858333196183,2.5589997828764,0.610929308646444,0.619427102997851,0.0620648256440601,-51.6807014954219,-33.3586236761065,7.03867862902109,0.366559355852316,0.356248064768813,0.450338595905772,1.08721887289406,0.568856320721209,0.300388179720275,0.671157958941435,-30.2605015167673,-132.45024528523,-9.82049379514373,1.32644423070762,1.40128834045091,0.718335839043395,6.933590683664,0.504161174728258,0.310999472012205,0.595701274322337,5.54039407827347,27.2441084248724,110.320858823505,0.870916703608094,0.852458376507198,1.02089061130287,1.26056435445319
1999,0.981412600196426,0.903687993366464,0.075757062816169,-7.970961382835,-265.205835892819,15.2346596429843,0.404816832516422,0.423292180209719,0.0683710271542749,0.484302076426701,-0.192218963421842,0.425891186974888,0.221441678317755,-38.3743273400145,25.5982202923609,-26.0546904371003,0.409273233414631,0.413618893137037,0.330136482680295,1.11801699194531,-0.532802560073285,0.299578419582427,0.248970665364971,-49.8835132765467,19.6556831243964,-25.2267405754526,0.359681089783428,0.363995234728449,0.281118239731997,2.02482583058329,0.259565448162034,0.0156379905417643,0.61168634873108,-83.8468001847042,-242.025638152289,-30.2555125728331,0.659044731157357,0.658649340015531,0.666245011950617,0.995709698734916,0.52372213449273,0.453641158373967,0.339442484406163,-61.9656155458182,-15.9795689226313,-16.3837999052359,0.41662518671681,0.428136527142579,0.206997618963331,0.439767634323306,0.42599935485201,0.36065445958986,0.580250694438737,-7.83409559109079,-280.416782735574,-10.2605827739625,0.844780344090275,0.873108790943578,0.328904417182759,2.21769925272691,0.393528937773408,0.672561363201572,0.10811825308807,-17.4462875406126,100,479.092931640883,0.848139726182656,0.880240022451791,0.263576436228913,0.953810899938061
2000,0.994454133793502,0.972429707596753,0.00549156879379244,-3.99256664082084,-123.952181219443,-12.8397233387947,0.44158536132627,0.466358400951456,0.0542251053688308,0.823137766972834,-0.58516300772406,0.339841221166812,0.0387824719456102,-51.1429378021207,-8.84993863355926,-33.2649451877272,1.47955284304461,1.55445459572348,0.308361801156797,3.90627099934143,-0.857855666057718,0.237550348296786,0.0330495261080492,-68.7843145910459,1.97107146226778,-35.8467740532728,0.633510167475636,0.650649443331202,0.365514217734052,5.31455316929599,0.313850010644339,0.104816583078665,0.478729746586278,-82.1309401180025,-169.180945882943,30.7494139503896,0.408715164210305,0.395760035899837,0.611286261428543,1.94669411311138,0.62643210874359,0.61223700901932,0.0318921499713789,-56.102089398704,-57.5424104349071,-2.23456174420651,0.717298364009839,0.744741460905579,0.28818812164009,1.56586989977243,0.506364827040709,0.102743842303408,0.854748002664785,-6.41443616511972,-176.421401067224,3.95855665674554,1.93969428497472,2.03199604813924,0.496430351856697,5.51167316341356,0.46252927673114,0.397479710888303,0.436861911414524,4.43106956142803,100,141.570322378632,0.953668399435635,0.971935044744358,0.668044490971958,1.16636747605225
2001,0.971517634473857,0.913073069207612,0.0801641338375014,-6.67144403635081,23.4110051826446,-25.7290110743959,0.778504069282036,0.795953130386747,0.0882967633623715,2.64850776298612,0.076863338892718,0.447690432332978,0.063041880800865,-68.6217167622839,79.1759100452051,-37.2276525600846,5.8034658631848,5.94311377603394,0.279615088263162,9.98760507451088,-0.520732884674201,0.274368841373453,0.049802940117298,-80.0877015588744,68.2507684731995,-32.7712503766468,1.68274524413983,1.72180499641947,0.137715042856342,10.4082802752283,0.337501934578562,0.143276811053049,0.428938696674302,-80.3734277611035,20.8703346376411,-9.72507393990637,0.479170357845557,0.47293217720001,0.725925058936093,3.1966169901165,0.507658866048165,0.292608309094021,0.420244984332551,-67.0173938330805,63.7452603823571,-12.3911222170373,0.422323781385899,0.420055834842808,0.512033666868202,2.37828092585293,-0.125950771758772,-0.751404087287501,1.67468813729278,6.4240543911747,-4.10207721354887,-30.3359832390915,3.95593957510435,4.04728557965702,0.342697617242896,12.3134667930388,0.627628477140376,0.666822621802682,0.0839767800344404,8.39530604327588,100,300.228950560666,0.839928179049631,0.853399259532551,0.307072106614141,0.961612180057707
2002,0.901286627806572,0.885725340939546,0.0116526654808182,-20.5125447174552,13.5446456594889,-12.5551806716112,0.305167623064882,0.307769881122929,0.149465849258391,12.9222437410117,0.0627498213456883,0.430244884303615,0.00522993775631127,-71.0148325413972,74.6051853166143,15.0846467134805,21.1634371328236,21.513401560273,0.223898890433787,26.8756058215779,-0.401917404716654,0.255645653916516,0.0545661340647898,-80.2810795118565,63.5163407442024,16.4692534911711,5.8922146773121,5.98755334781805,0.187784225372718,16.6121300522396,0.253172581207194,0.105740541038479,0.430617648162195,-83.7956467514237,36.4298803312105,68.2449760518688,0.528490327944081,0.525077442048134,0.732694667384907,3.5984435252938,0.386323819530526,0.305010956370222,0.403942371652629,-73.6568389649714,67.4394326487094,78.2392348012451,2.45453881554278,2.48845977610419,0.424934675285065,3.92594007294126,-0.83230334296381,-0.993504035357841,1.87288824077477,-1.08763899023989,17.8288186146983,15.3518196933256,1.83267850639448,1.85818158243849,0.306744456427598,3.48734105590481,0.445446624114657,0.702928176457871,0.106075703058331,-37.489881680177,100,781.184069484461,0.770524469300438,0.781012105941002,0.143014210306678,0.936375254654451
2003,0.984660608096307,0.942704301795104,0.0225766477445958,-5.82055097900625,13.9133550241292,85.6392709595758,0.267633475592395,0.278355542560394,0.060935851264849,7.49692084371186,-0.941717585321531,0.241613292651531,0.104345035122629,-45.9418800423205,65.6222847409859,77.834204680912,12.0968965313419,12.7029983467783,0.412600422649979,23.9925058763813,-1.16166820521224,0.17448620758065,0.0800049040575154,-60.0712721216863,60.5606633622817,158.041688004779,4.2417696793894,4.44638405056441,0.297259301737976,18.4594401403244,0.281828874008811,0.0604066815602483,0.545656227770212,-80.3232355970919,24.7514284976373,159.49553966625,0.502651318147112,0.495272131771182,0.644905633283094,4.01621565375336,0.402611031405748,0.396304904491668,0.340438859520525,-60.9732429984065,40.4397171777951,119.685037705967,1.09377475713768,1.13618862419935,0.276129653226638,3.87332749550412,0.358909334364814,0.0926176183761268,0.862153396856596,-12.4784647379722,-0.758833750499822,167.776001453343,1.26059047747272,1.30774761439124,0.35150567132117,8.55754627768416,0.470965142027085,0.70339612219267,0.0949504701779971,-41.9156649599294,99.7372718836646,1486.5755356824,0.770542579149895,0.80332573697183,0.138556147804816,1.00027000295668
2004,0.989825080775494,0.933195625898231,0.0595658320445072,-3.90649974583056,2.4445093741376,-7.96445224426346,0.274356819530336,0.279398931452529,0.048722311012222,40.9256876195249,-0.422387022951628,0.312809185493406,0.226744012410354,-68.0262448741432,67.891680790531,-34.1118121594155,70.7815975488461,72.3601316220885,0.142197771245877,154.517682761298,-0.898684942115514,0.183339589399488,0.182272299380873,-78.8785551476652,70.4592487981671,-11.015013480508,24.669888953078,25.2149414310302,0.27879056471663,234.560618199839,0.257436707893406,0.11404429015914,0.34898532619513,-84.2721651621849,39.1554447423992,25.8481745312216,0.608755575838051,0.6068438498287,0.694305314756542,73.7925432974915,0.550811157069665,0.549355813098031,0.100192607955678,-56.2936667370375,33.1993070971195,-22.6277164298645,5.5560578744916,5.6737642096063,0.288699378108788,20.2167846908582,0.322234767997132,-0.389042764719895,1.35835187071741,-2.8686700325079,14.3982386373001,10.1061173548692,2.11592508812112,2.15189484423946,0.506278501825514,9.02351688827148,0.75180966503464,0.799931289045993,0.152926049614706,-4.95529520288892,100,404.782528725208,0.745308056806538,0.754126055754787,0.350702603872362,1.09109185445577
2005,0.989970701006005,0.971966579016759,0.00544921166750028,-4.56434995695821,3.82324548411133,-7.04277991575597,0.291081442904021,0.310688744366719,0.0550935645851249,112.946783361842,0.040380268496795,0.397758986297453,0.132015777216092,-77.1630263153401,67.0976880051553,-7.8182466348117,87.2904128946303,94.5290964926089,0.167685304673679,703.16314512256,-0.632534917967674,0.237767695324434,0.0869851994277167,-85.2816929441845,64.7244465111094,2.71015481599086,33.4336330267544,36.2019419551328,0.115057710199745,1456.17279211784,0.218664680429439,0.00518201010366226,0.557284944609242,-87.7853332470255,6.011877710164,-1.49723672585598,0.361933775803581,0.335077861778844,0.685163883887018,692.529826156623,0.490374958831414,0.402893081117898,0.237887666191336,-73.43592478607,50.094035074362,13.4577679151365,23.1603749532752,25.0561393954652,0.343495774059606,239.270052179836,0.417171720459756,0.161580553703916,0.804282063026037,-25.0959470324053,-14.0463773562121,-9.26285462657079,2.56166661034222,2.74149987985655,0.39724475940194,1864.32829675131,0.635204146915843,0.762257781245932,0.132188725400622,-23.4670300911291,93.8847699147481,301.03374800684,0.702067570987633,0.734180969970988,0.31555987608082,0.921573620460626
2006,0.982137632323927,0.930915697717009,0.0493255942934708,-6.20571543517823,-16.760491280452,26.9194145091672,0.332834481307321,0.356996751580254,0.0528854188347221,1.07470798435305,-0.230224127382908,0.439892215182033,0.00463052730276548,-54.5975167272743,59.3073458248135,12.4247062293704,3.09190956868198,3.34395651612064,0.171641488013413,5.16971109213499,-0.70923916397646,0.297074550778497,0.0304823567489881,-61.3217199320756,60.7006677677639,53.1838089018491,1.39043656203406,1.48914705419732,0.246756376970054,4.67004520630209,0.293803467743013,0.111984514770545,0.493969363647114,-81.2251849459065,-1.83063234734385,56.880121951964,0.604504887309014,0.608281651598684,0.560746514849399,1.50285420436085,0.538148011381042,0.600648574359396,0.0368193170911968,-55.2900958039777,22.4959061413135,-2.3918186284483,0.91074027407941,0.97473747856847,0.169255422068238,2.34768513530214,0.279333210903235,0.232350476066804,0.696323634017848,-20.6495015740228,7.97463440804736,79.5050359872597,0.894497632582495,0.925098434579875,0.53995040944044,2.16671823079609,0.21219014955466,0.484620949657483,0.291720350257925,-0.892911624019492,100,818.289127005147,0.855813025455492,0.880227936749726,0.572936811839545,0.977880942215447
2007,0.969314512035392,0.905308631760429,0.0852417605025115,-9.69281063842705,6.51310987806256,56.7275440808749,0.181307892933542,0.182126078620929,0.107466634646804,31.3214769153563,0.441820340703788,0.668287206865118,0.109238871698417,-30.0873394180579,71.2223162563703,-6.42206064951369,69.45244029294,70.2191605149195,0.255940259294777,94.2452867306923,-0.1517356949236,0.412086222012879,0.258934285448193,-37.7438535466583,59.58730389242,34.6293982804387,18.3907588623806,18.5936966380418,0.0756246089545358,89.7354349854464,0.310826464114544,0.166688490288773,0.297751013103211,-78.0040136483608,4.94059007887608,96.7124862490016,0.784082033827326,0.784224496676549,0.771224761684951,29.7522157376521,0.535646397812285,0.32153158401504,0.356742036276043,-58.7386060343588,62.6721921381548,99.4790576556676,18.4671979480119,18.6660710649878,0.518899140940291,21.841053289967,0.133185326518073,-0.726899391127918,1.68005689419779,7.93025894841917,-2.50650390124855,93.5556568176254,2.49648995131992,2.52067105853043,0.314145025571311,5.27668262033702,0.850933949828851,0.760830337204546,0.225477947555732,-1.94079955056357,100,-100,0.793883602661638,0.800894177909537,0.161179186538697,0.824845217787722
2008,0.993544701787622,0.960319468839547,0.0174801683509713,-5.59747784577507,32.3407776186286,1.37279443691664,0.29089709214868,0.301830970381784,0.0517185057995238,16.4092403527683,0.211086010107276,0.441251814782788,0.128613254150725,-67.7211055879184,65.3104953248709,-20.2726834270255,79.259497702291,82.8676198000707,0.331826813361254,196.323747135591,-0.0149952459192682,0.324407398718538,0.187151444426118,-74.3610690712982,64.0731113746417,-16.4236251139723,26.267701705834,27.4564518723389,0.263791813540111,307.32518312453,0.238760635293056,0.0169025236036821,0.524256234404698,-86.2709073853959,37.3171272764496,34.6020818127181,0.436809132865878,0.423402367958702,0.730082115210369,61.0450185570413,0.480054783316257,0.437472767802934,0.200736789406014,-68.0241059297484,30.3029463234097,7.0572434239939,2.85636488229621,2.97033947190044,0.363170734703743,37.3325369941177,0.554479294309205,0.201623553817213,0.771558675308339,-16.0101207013962,15.0914885912455,28.8731777783789,1.35133282108106,1.3993842979992,0.30020676349682,28.9066900548995,0.664680607905494,0.808684076891481,0.0943912112220639,-31.4894887628761,100,289.645508684161,0.756491862296345,0.781614377060866,0.206936851822454,0.903465743830824
2009,0.990780414877548,0.852608035789639,0.145453893122955,-4.30526308505216,19.5466956945433,14.0725200612621,0.702239129087614,0.716109101435739,0.0832916130525302,40.8026280001662,-0.577247633634108,0.263233474344602,0.363618796865893,3.75808927168902,69.6207179151185,-23.8035149818087,41.3351221786417,42.2553362504192,0.270569225570198,235.947492243008,-1.09079470100953,0.141104531292171,0.337079053837803,-6.2630638189365,59.033346402504,8.48876653383509,18.2201209081421,18.6233583016022,0.225652224987437,584.151400816209,0.32155955496982,0.178317892637308,0.292273257976299,-75.7010649656859,0.284879635483482,31.6064115900099,0.620885563790227,0.619443712648875,0.685228170973062,131.120479979508,0.633292422884814,0.588274660499785,0.189237079393288,-36.382445175966,34.6913411775308,16.3087342166331,3.34111137028374,3.40825812259888,0.344687548220477,10.040897840551,0.135302851688876,-0.704822414440878,1.66886511839233,-9.07777913333741,-5.05857658664684,26.8871701864022,3.30551303952986,3.37047665845527,0.406511544983582,24.4841572567873,0.285335762517975,0.282914313899079,0.614068873177288,11.8928369530409,100,445.585163523526,0.909025003047473,0.918249257482173,0.497392648899021,1.05787326502733
2010,0.979802536646925,0.922220646971142,0.0614003669539789,-7.29329671478093,-63.096475170726,-0.258642437927611,0.376489170701178,0.386449388158061,0.0559512634523974,3.54434093264051,0.337375602511102,0.648574725057273,0.147921873598695,-7.1649594395061,57.9983746508193,-27.8893285910974,2.34795500024034,2.41298612238023,0.255135251374863,20.8887450818733,-0.372511260863989,0.383192006046478,0.222378557143165,-26.8974796339154,44.0472204018443,-14.4948900770524,0.868263834021151,0.878530407199609,0.53786684264169,50.1792979790088,0.313793381947193,0.149254307527957,0.420038708777034,-79.4175263729907,-46.5570693192255,-12.3017871730368,0.416009719608682,0.40855795855772,0.655820938885073,10.76695592245,0.448445585553479,0.544242891397181,0.110050964362909,-62.3435540568984,23.5499661211893,8.45174922574564,0.220849258677076,0.219923464411897,0.250643001392823,0.932300556855305,-0.0719310762083269,-0.536380134934668,1.46965444387918,8.36064039581451,-90.4779969995844,-18.3544324277927,2.44438909576593,2.50835468719015,0.385860062659542,29.9988829443121,0.52467433696718,0.492950134310757,0.403373505769157,2.35980824478472,100,596.262157012482,0.932844870214711,0.952060802467558,0.314441232259441,1.13726793308593
2011,0.993427967505688,0.961980194833031,0.00279778121805039,-4.81829194291587,-105.621648849981,-9.91230835974492,0.372717630409228,0.392155997666976,0.0542986619966041,1.05726647516364,-0.164009091486124,0.441240698882567,0.0353310562408591,-69.937700425669,40.6270591541608,-20.0190733669848,1.88627068271026,1.98533537366352,0.263496697571047,5.30541384887484,-0.520250218027229,0.343041039976496,0.036962708345811,-74.3387200092746,24.5580500220404,-6.49183610541504,0.658886355956774,0.688398484029645,0.175449591334502,10.2956478021641,0.260646244647838,0.0485732327318739,0.503887241644746,-85.2478905106923,-134.07303360942,-7.12219556172763,0.3801770727519,0.360633140225339,0.700325300806054,3.59256193919083,0.572806112418024,0.532267784872418,0.0935314596017992,-59.1410237639164,-27.4962704420694,-29.3075879665015,0.610715246546495,0.631518924572491,0.269931187453976,1.15270644082978,0.452128392487725,0.163968412123083,0.793258116519493,-36.5673892916423,-192.39482453156,-18.8277933762649,2.23228737181458,2.354292359455,0.233729479038229,10.4011869030776,0.533173831914987,0.757369516907123,0.0843964861620358,-22.4195464908281,70.2184325971715,262.887756529981,0.791806012346084,0.827482552271146,0.207390310716502,0.920588358269168
2012,0.935183712900414,0.773852509666119,0.223437708634094,-2.99835738659524,-69.9603944227916,30.2342813132378,0.694217197142844,0.697736121945169,0.0537728831196488,1.23600663907206,-0.384145049498417,0.190515742859774,0.0739704616202419,-82.2104091661487,45.2076750015806,2.63988189608057,1.04543816232534,1.04970796963904,0.268333231233301,3.83339659379063,-3.30315276309671,-0.424903996302994,0.624286404536923,-86.9209281321569,17.9408787953292,29.4885569118175,0.393431873903009,0.391104618691615,0.816992322376851,6.9819257803456,0.307520898052709,0.262730411594162,0.173241560681453,-76.4434638357108,-96.403325385591,47.5718160139981,0.622132574022997,0.62141964372496,0.751885888265694,2.26940872562519,0.309516233665033,-0.0165355517059365,0.662789651911785,-80.7366505189863,-3.18533242272993,49.6486627483696,0.658139912662848,0.657363393326737,0.799466431834964,0.775381097272671,-4.11318296357684,-2.82621948711827,3.50365407465842,60.3286967707716,-150.984757360895,65.5817970716349,3.69014834312006,3.70740363237506,0.549685698709491,8.54308156533811,-0.158830709690486,0.313723545851698,0.368753569898572,8.3939694792393,100,-100,0.97720899285993,0.981324862500664,0.228120718246268,1.15235241720061
2013,0.988255875355361,0.772123382048314,0.224725607350376,-2.86070991996449,-22.2662285488582,17.4143043328178,1.19635644089661,1.21573739160551,0.036729556814019,22.8868804312328,-1.26950974477154,-0.203210354192772,0.865278770725667,4.10853543020946,44.3260057656154,-6.92577258409324,86.6638097770397,88.1068335904419,0.32288494180425,202.341717943621,-1.2631577149064,-0.0502384018154092,0.605746439755022,-17.3664204340111,35.7304060184038,7.37699428908945,23.6572468336872,24.0470736380049,0.332609708683116,279.290285895901,0.25400159628075,0.20475542997717,0.0436451404653619,-69.0325209542555,2.23371445339044,53.7357253733217,0.889703618959699,0.894321567150162,0.613396385563669,90.615847055936,0.406623154278132,0.245245437082502,0.661031442510534,-7.04209768557028,24.6868367857896,62.6845985962001,11.0539753789213,11.2299979216891,0.521959903313599,35.3439158379392,0.0026122242796105,-1.27177090763946,2.2333956975849,19.8608740591895,-21.376129259533,53.6940587932364,3.46030674100838,3.50451892050377,0.814944667867597,32.2588140701846,0.60384862636003,0.526715058534621,0.429513914733832,13.3585898893554,100,359.298418641237,0.82892808148437,0.834414402090298,0.500663231896352,1.00550991803529
2014,0.346520338333208,-0.341633887017958,1.30289160257093,-8.4976668728352,-Inf,-80.4418377745025,58.1437199743494,58.1437199743494,NaN,127.796408723113,-0.588419118534778,-0.26202624220442,0.871719104714651,-77.2518555829987,-Inf,-81.2178620960092,60.5604729303723,60.5604729303723,NaN,381.861252230065,-5.39934044736737,-2.67014943113683,3.28785158335724,-52.6840107162017,-Inf,-75.8291174256268,74.0197574322695,74.0197574322695,NaN,835.887879497312,-0.107527911755865,-0.135818491272504,0.630558244893078,-78.830195305231,-Inf,-83.093711805393,55.9484186415461,55.9484186415461,NaN,302.007915776721,-0.0235816028204392,-0.767992170294254,0.994054465589329,-99.9966095285874,-Inf,-81.5286147582771,0.460289909614513,0.460289909614513,NaN,4.42886332488492,-26.3797554056917,-12.0670297079339,12.3004945363106,370.518316448438,-Inf,-63.6175732204533,99.6434608371593,99.6434608371593,NaN,279.332141132048,-0.11556049599368,-0.0782725542687528,0.465994291566025,-63.9274691947387,NaN,-100,0.345715015422042,0.345715015422042,NaN,0.401964282050547
2015,0.517830876646023,0.160092185205079,0.735063504562065,54.1787565874185,-83.4283065235487,-6.56847740230966,17.8527239329682,18.0864953166366,1.02118430884363,107.837091419859,-9.58622080778417,-1.82777782923672,1.51561655058957,-30.3608375034404,2.70877403074245,11.3025678924888,129.567016782319,131.344671859758,1.57585120668287,768.966671528063,-6.20453593264266,-1.2280379228554,1.26876104888272,-46.9823306852006,-10.2088673754545,38.285075001586,80.5937052891599,81.6948151266763,1.31379698797606,1730.66741649887,0.322830173739721,0.320365426138052,0.407147595549818,-50.4816504128251,-118.22953443401,103.202042553338,32.698561794483,33.1491143144974,0.258780353451152,491.487112678533,-0.22144674840689,-0.57915103471388,1.47967774470017,27.0781761258889,-118.979221100718,130.506603965478,26.7182779304636,27.076383439883,0.934681252265292,99.9484153848276,-0.839269145557587,-2.12812592790535,2.98943950725311,82.3346892953329,-146.034887528211,77.2303285985896,51.0408590604688,51.7322705138376,1.25923441791599,1323.1836514591,0.0938336444203774,0.330716157330696,0.480448574634869,28.6973204565314,100,-100,0.587953080692334,0.581651991169069,1.0416315263675,0.652584958628508
2016,0.749100355428922,0.775147107540204,0.0395108116087403,-40.0893134259815,13.2650563717352,24.4577567583719,0.288985627132982,0.296842932968273,0.153054236182439,55.2587025006186,-0.0838812996946441,0.275654566235996,0.177856007499558,-68.9816241843092,46.2784494054022,9.20418582056181,61.293333222717,64.8135837410554,0.392999255462101,480.787815198768,-0.440127104353461,0.206454402978837,0.174434776576943,-72.1234901866215,38.757060854654,35.4819671811795,25.6854513339103,27.1485945025287,0.373074516812534,1164.11173760855,0.182463365712638,-0.0507225862152025,0.570000064751979,-87.4224681419447,24.8056053422294,68.3137036473445,0.41111572349015,0.392897818482492,0.72628548012264,348.799344855328,0.447661380944373,0.320720999099923,0.277503215801012,-67.2701907685182,22.223245737508,36.3142782216729,2.32127771464235,2.43147506671135,0.414863523848766,3.7348827140472,0.441108989846639,0.0962746324640158,0.870944350009056,-29.4807503443954,11.0736852987369,31.201953026263,1.6456038407903,1.7190420191547,0.37512335508626,617.404506675947,0.749106750859154,0.81040119098192,0.129992415093699,-22.826957660031,100,916.839119586388,0.742378641643271,0.772139372274369,0.227518001725273,0.957235428325462
2017,0.78165443149538,0.508937953737574,0.298446095442952,-43.4255064806986,-43.6106625997786,-3.75272551478849,0.445567202531758,0.469758621749216,0.217476678481444,1.90623170021519,0.138121191363629,0.0392198845411579,0.519103580756309,-85.8617868354856,52.7395771721772,-21.7040703509946,2.11525571916183,2.28383565859271,0.525787718813543,7.42561521692566,0.0161333152986338,-0.0259021576997565,0.535397921557493,-90.1831166533937,38.4025917161107,-14.1568780996409,0.820919042103009,0.853371659078679,0.514937224903833,15.1611493518569,0.0889079749871725,-0.217442011968628,0.765557272465025,-92.9678275729881,-12.8605834142626,21.7277476407252,0.773790432317333,0.777857828433481,0.735440697507933,4.91323268386211,0.328338527096202,0.0851034607316919,0.534065644940851,-80.3265557658368,24.7996374802873,-12.5417469607285,0.291830123971999,0.283983267882009,0.365814767106191,0.718720590461292,0.616267132988719,0.553846605693452,0.160026826433556,-55.6596477551983,-75.732299306392,-14.4087078601891,1.01195468266875,1.07213151510799,0.44457311967025,18.0099076895988,0.741176286506097,0.795682550305194,0.049128227947881,-36.138944776236,98.121336239961,370.732917683572,0.819970896379121,0.849858465724443,0.53817381398036,0.955848553100273
2018,0.483615494064839,0.512004601788591,0.0426900634648279,-43.5801092445083,-21.7222995443835,30.7285831310585,0.492978550108974,0.494641545049573,0.292310493943337,1.43864390855513,0.0698033030859108,-0.0880271634036853,0.447373103270619,-87.3452533667097,50.5766279784123,0.425161484693331,1.08637225906974,1.0899437577818,0.655411414480651,3.02239069278727,-0.337451690965607,0.123326623162794,0.0823282856617229,-79.9897224913141,40.8688583857043,29.1861741925497,0.351314488382027,0.352771993731859,0.175442176168982,4.8984437569794,0.0611257245857377,-0.203796517994515,0.562919251444702,-92.7009947873515,-17.7664170925691,25.9576965182423,0.586776391107749,0.584852392649525,0.818938871733407,1.9342299831065,0.022913605983179,-0.373192567917169,0.840417111076148,-96.5052348482724,41.071506651669,7.42068689313817,0.713754668032188,0.712497675131289,0.865431811407327,0.663742210518631,-0.866596495622525,-1.00518232507783,1.88930184016894,-14.1886659734329,-51.0055792541053,62.1197725008912,1.97696167194402,1.98733778557303,0.724910627375767,5.0320281570356,0.479976802106734,0.519793038059036,0.242595829346589,-49.9561725839602,100,320.332774238193,0.890711219154632,0.894652807651787,0.415092873831283,0.958409103221715
2019,0.860404839486628,0.645404484445847,0.175919842399171,-38.7019398492634,-68.0493347081246,8.20105232169993,0.28382394762384,0.288491063649749,0.227651872597725,2.51409409954467,0.394926622454604,0.441912214451672,0.239917693437519,-60.6486703994817,5.76423290405979,-23.7065487427575,1.51551876708529,1.61279099523882,0.344778021094592,6.38668381884901,0.19239636441025,0.386607162984156,0.257352098812617,-60.2089618955557,5.10080220752738,-4.60502784259711,0.373579898772165,0.385113941912768,0.234759450972766,12.1192231827826,0.218818031006643,-0.0394309011031633,0.623364974603579,-86.5976727139574,-11.3139431917237,-7.96885315320039,0.630357977114387,0.624029653103372,0.706523876818391,4.04585543630253,0.560248868768406,0.407215990758962,0.287172727111737,-66.5890583984887,-44.7761495284104,-20.914358907391,0.362433271057377,0.369983695031391,0.271558525370145,0.915413622829285,0.457214266247628,0.245912823719463,0.712624975552213,-32.5951115270859,-65.5699600903802,0.889670833296041,1.52587815269228,1.62508218694629,0.331886740420811,7.97368643248289,0.559202963189923,0.625799084166974,0.295033963644514,-17.7038766740944,98.0406362843393,506.57552037073,0.846293360216548,0.880556622372956,0.433910526405479,1.01099000811877
2020,0.880648904675116,0.627121216783452,0.364311039902345,1.90135377597639,30.3273218367991,35.729087237916,0.560879610222785,0.56389907858017,0.0113363691787876,5.13975285420289,-0.184036409415115,0.310638090793979,0.209440885270481,-70.0781415857074,79.5175900326631,37.1264447152242,34.4302693396054,34.6184971280437,0.172811843841855,37.7638916433157,-1.69987898990269,-0.116510073614835,0.558133098308313,-79.1706149334741,76.311783312693,135.054488482603,9.89874377406456,9.95164806739854,0.270162387280193,13.7029234816003,0.222935571891289,0.138553598331708,0.174581839212277,-79.8795635410494,38.1661121753378,102.812535419607,0.657163384076972,0.656361057975692,0.803186734509789,1.37915191941016,0.248236916332733,-0.00510193623433097,0.566022487834469,-81.2450609428194,70.4083328460243,31.3040515912648,6.09746588511399,6.12654476027973,0.805110604949445,7.75284793376117,-1.58450990472936,-2.31888252171154,3.19418681813838,43.626741384745,18.2565427193337,168.488831376678,2.79971294776397,2.81263433397898,0.44802065663154,5.46721393372825,0.333740355820692,0.685454919229806,0.00335537592615863,-27.7860689710744,100,513.386710574131,0.817976961407739,0.819991521328015,0.451327055917505,1.07814503622724
