Run_name,train_RMSE,test_RMSE,train_NRMSE,test_NRMSE,train_R2,test_R2,train_NSE,test_NSE,train_aNSE,test_aNSE,train_bNSE,test_bNSE,train_r,test_r,train_NSEL,test_NSEL,train_aNSEL,test_aNSEL,train_bNSEL,test_bNSEL,train_rL,test_rL,train_NSEH,test_NSEH,train_aNSEH,test_aNSEH,train_bNSEH,test_bNSEH,train_rH,test_rH,train_KGE,test_KGE,train_aKGE,test_aKGE,train_bKGE,test_bKGE,train_FHV,test_FHV,train_FLV,test_FLV,train_FMS,test_FMS,train_FMR,test_FMR,train_FMAR,test_FMAR,train_MI,test_MI,train_RR,test_RR,train_WRR,test_WRR,train_DRR,test_DRR,train_KGEL,test_KGEL,train_aKGEL,test_aKGEL,train_bKGEL,test_bKGEL,train_KGEH,test_KGEH,train_aKGEH,test_aKGEH,train_bKGEH,test_bKGEH,train_YVRMSE,test_YVRMSE,train_YVNSE,test_YVNSE,train_YVKGE,test_YVKGE,train_SQRTNSE,test_SQRTNSE,train_MOTOTNSE,test_MOTOTNSE,train_LOSSVAR,test_LOSSVAR
LSTM_PT_ENSEMBLE_10,9.25566621714587,55.242986191713,0.140466015823534,0.601977951027721,9.25566621714587,55.242986191713,0.98026629661841,0.637457077319606,0.947127850696921,0.506958376716999,-0.0120611420840884,-0.0841314949772853,0.991134910710657,0.889170842132587,-9.5591086329433,-22.2143721380647,3.4860273243546,4.91988819267696,0.337995520307281,0.470034712048353,0.388342884147758,0.22480474878142,0.952255753405341,-0.116979151493851,0.996557843137374,0.432101173002863,-0.127992652388743,-0.736251420433641,0.984333943584005,0.72286862700228,0.930385807595582,0.37096873641352,0.947127850696921,0.506958376716999,0.955591872319537,0.625423991630447,-6.80473536055444,-50.6635986712401,43.6120930274585,50.2015442773155,1.04675862178117,-9.17197841389526,-26.7717455831663,-268.359664325921,33.9216043360736,279.268391225585,0.769665229165261,0.649381262376329,0.0444081276804478,0.374576008369555,0.0286757179519762,0.38066541410111,0.694724676092078,0.833524494937749,-1.59033542374207,-3.03399111527122,3.4860273243546,4.91988819267696,1.39418437650755,1.55374470425189,0.930087797200961,0.190067349320715,0.996557843137374,0.432101173002863,0.931952646394456,0.493364013287599,47047966.7243647,412001753.957268,0.985766828136808,0.521031687637979,0.910495084203447,0.342509967356535,0.951135054230301,0.8189262323197,0.994581952111667,0.757349839760422,0.964169123594711,0.800453314551917
PRMS_uncal,73.293723430012,90.4660120723571,1.11232158480543,0.98580015924512,73.293723430012,90.4660120723571,-0.23744754160204,0.0277543008478363,1.07314111011516,0.662299007586249,0.000293384741511137,-0.0641745531134919,0.425938573263119,0.355213071974406,-289.802950074682,-6630.50243017923,16.8258946113057,81.2628738752507,3.46498247503976,6.21313577142126,0.15799834764057,0.0725095859579504,-1.8050447595459,-1.19995592699422,1.00324399422636,0.387190006597221,-0.989900397638467,-1.04920197249946,0.0941417364879306,0.0994280143952654,0.421296871852454,0.218060487852848,1.07314111011516,0.662299007586249,1.00108021835492,0.714277656059223,-52.6281010161311,-72.1986351190707,6.258964644002,49.2871009351368,-25.0950062914016,-29.4513999850546,-207.053773038168,-382.428449488372,282.721652824428,401.475745023256,0.122950570686323,0.160903813059984,0.0010802183549326,0.285722343940781,0.00783552591506021,0.317035935697632,0.839421494027039,0.639955384278773,-15.3553550026891,-79.6012808984513,16.8258946113057,81.2628738752507,5.04100609171208,8.31965308525676,-0.0476456551372948,-0.306839806776653,1.00324399422636,0.387190006597221,0.473718989838689,0.278013648809293,83353614.9375427,410810920.216628,0.955324558437234,0.523796468766588,0.939068450886177,0.378231560882218,0.477410038213957,0.479871458467493,0.883742040221252,0.704364558761816,0.599309638816146,0.54721938855579
PRMS_calib,84.3489784223439,95.6589683896415,1.28009855366472,1.04238734649106,84.3489784223439,95.6589683896415,-0.638901607612866,-0.0870675314397966,1.19546266049415,0.684705170605533,0.00441144402364285,-0.0616235881524897,0.330520080190273,0.281546610414084,-1210.82265017475,-5275.53228753548,34.3739180076604,72.2229648844761,6.02696046447201,8.3237619100971,0.102942170637881,0.0689677434359932,-2.37016308260848,-1.43643566625959,1.1104456917562,0.417552725885581,-1.10964054203399,-1.10536033328106,0.0466930710310022,-0.0133790692602552,0.302380593860023,0.168818837094092,1.19546266049415,0.684705170605533,1.01624257206252,0.725635237103525,-58.9940914026053,-76.063055035569,18.1792800930469,45.6672582700913,-16.6144302155185,-16.4343198439959,-232.099372312977,-402.897868534884,317.612609351145,428.011351093023,0.0916564466103294,0.144152513246522,0.0162425720625429,0.274364762896477,0.0260596308621236,0.333063766531434,0.191499414404246,0.326636345373541,-33.1178607752686,-70.9008933697456,34.3739180076604,72.2229648844761,8.02889094732286,10.80616741492,-0.126509047318175,-0.394539637038869,1.1104456917562,0.417552725885581,0.410059085973947,0.239369449644309,85784723.7425011,419696862.034471,0.952680528113037,0.502972868225314,0.931295202713607,0.339963357477482,0.187599462472555,0.255259904651667,0.903702371807867,0.682844441913475,0.402430335273149,0.38353526583021
SACSMA_uncal,53.5174844982338,84.1317649978465,0.812193055367411,0.91677642721904,53.5174844982338,84.1317649978465,0.340242082139712,0.159137202122203,0.387780469774998,0.17871744346404,-0.114227339718275,-0.139437216453524,0.649421108524459,0.588998863050114,-41.0812334797571,-90.0354729469169,6.45412730799846,9.46919614739077,1.49423103236168,1.89957918916159,0.21752114416625,0.171152328869291,-1.91508865831328,-1.62875894440069,0.352524884981191,0.0670444072307674,-1.41204308916881,-1.28146793734839,0.309748700790406,0.425055081684196,0.17865831539883,-0.108528045396165,0.387780469774998,0.17871744346404,0.579424381916466,0.379188067780991,-75.0713369882358,-88.1815307733349,19.0463630791758,30.8087722450718,16.2836423155129,2.49274976092658,-295.351784889021,-467.088138599035,299.037306591597,467.088138599035,0.438157882058689,0.460284828059394,0.420575618083525,0.62081193221901,0.429848539095492,0.631952132342526,0.680287077658428,0.878316501814392,-4.77897495633676,-7.79899907858959,6.45412730799846,9.46919614739077,2.74263412519266,3.23788135076526,-0.207990664015777,-0.406615098073889,0.352524884981191,0.0670444072307674,0.249286630117642,0.118184692266651,293191578.255362,634835147.415582,0.447257373865404,-0.137183577033645,0.467382689912359,-0.0166474848210398,0.619906395500244,0.485975716539965,0.704653079750881,0.307538803588941,0.645330400775435,0.432444642654658
SACSMA_calib,42.8942615980264,71.8368012295645,0.650972700074867,0.782799290800213,42.8942615980264,71.8368012295645,0.576170073126438,0.386945464510045,0.664651625688078,0.403437805879094,-0.0262126046573183,-0.0834129974949252,0.76628042606416,0.689906132750135,-9.47656561799702,-66.4168644045826,3.44629679508919,8.33546028807628,0.511237549624118,1.01110552598888,0.386186425746008,0.245106214008384,-0.671840129603488,-0.88802746493779,0.512556062649578,0.22389134545032,-0.937465888856295,-1.01064696448125,0.464803989821522,0.464123294139785,0.580002307670106,0.231907829687605,0.664651625688078,0.403437805879094,0.903487357470454,0.628622935367732,-49.8404179002312,-69.5455530348959,-4.63161539640724,-6.69945194013374,3.35137697595276,5.30435994801146,-196.086242459686,-368.375357402309,208.556575270925,368.375357402309,0.476965777381753,0.534675009922944,0.0965126425295299,0.371377064632274,0.0883699344681559,0.358804367824899,0.30456543875424,0.0314930861491673,-1.59164446680616,-6.46978874256109,3.44629679508919,8.33546028807628,1.59622640726901,2.19117655803805,0.12111258569848,-0.171822035226963,0.512556062649578,0.22389134545032,0.501595820997689,0.304544469651041,115193238.841131,434184544.46464,0.914675460388868,0.468066462930753,0.890065044173102,0.360800461558676,0.761294235444747,0.694215168930644,0.901907291189733,0.692932084630328,0.803478152168243,0.69383024364055
IHACRES_uncal,49.0550878167124,62.7357326071697,0.744470746873149,0.683625748253852,49.0550878167124,62.7357326071697,0.445678986847343,0.532442437162866,1.09531039298813,0.815411454077012,0.260616756081921,0.162434598944931,0.782114038952585,0.750379037088187,-794.428019149815,-1147.96004703976,27.2384978643883,32.8119612675667,8.31672244264328,9.23596682650275,0.306425789750151,0.213835999057722,0.361919633134615,0.187099971471084,0.653976618634234,0.384332571661787,-0.261382827008628,-0.473767166834387,0.656332011471634,0.734534413158445,0.011399126972413,0.212976908187894,1.09531039298813,0.815411454077012,1.95956934252705,1.72320245480398,-13.8964302433951,-32.6012947995001,0.987262106366368,8.72256501735962,-2.73260543969665,-1.58041657313112,-54.6724707542599,-172.685572253885,120.60378245535,214.654043506978,0.570961805666481,0.612953711555381,0.959569342527087,0.723202454803977,0.837500753540773,0.57550869965238,0.430388708879408,0.248206823768187,-26.9824294229458,-32.6305128037921,27.2384978643883,32.8119612675667,10.6993062146482,11.8808298360226,0.492899473337006,0.254478167741474,0.653976618634234,0.384332571661787,0.861035697566049,0.673987052004999,570597098.425174,485148443.122774,-1.09352953747466,0.335862601675173,-0.0306410656459053,0.275838491237581,0.322201748863453,0.408665243418966,0.439025435654591,0.795417252618857,0.357248854900795,0.524690846178934
IHACRES_calib,44.986996536714,49.1432892275764,0.682732503433766,0.535510090879499,44.986996536714,49.1432892275764,0.533805413849959,0.713097996877905,1.23411308594932,0.931319119669894,0.0698775557150957,0.0267193542606223,0.835306003110804,0.848886013413874,-4.61823968107797,-1.10769167769868,2.11575316078916,0.734026855149195,-0.743391192399875,-0.816682285614047,0.0971149064433956,0.0671510100830177,0.135158864582675,0.542623901674477,1.16270864332224,0.6567724735848,0.0111880088368134,-0.2451778991069,0.639530976560606,0.788338024583575,0.615126270250177,0.795783458200751,1.23411308594932,0.931319119669894,1.25728338117237,1.11896174040243,0.594811013954348,-16.8714033530742,100,100,452.127960498692,396.955651362132,2.34015406799795,-89.3660193765187,149.468146173689,183.318399799355,0.543206782210159,0.658081559222148,0.257283381172385,0.118961740402424,0.342673692784069,0.171742010798065,0.979806783437256,0.998256098934495,-0.676827312045859,-0.366249965057135,2.11575316078916,0.734026855149195,0.133026398069002,0.0378721419438784,0.604465678498888,0.562884052182385,1.16270864332224,0.6567724735848,1.00594811013954,0.831285966469258,268418343.517054,123803747.494895,0.536719139348149,0.956750983676625,0.441186829781782,0.854738460669413,0.621547658485572,0.724800769038476,0.661817918393393,0.939216557243887,0.633628736457919,0.789125505500099
