Water_Year,NSE_LSTM_PT_ALLMODELS_STATES_ENSEMBLE_10,KGE_LSTM_PT_ALLMODELS_STATES_ENSEMBLE_10,RR_LSTM_PT_ALLMODELS_STATES_ENSEMBLE_10,FHV_LSTM_PT_ALLMODELS_STATES_ENSEMBLE_10,FLV_LSTM_PT_ALLMODELS_STATES_ENSEMBLE_10,FMS_LSTM_PT_ALLMODELS_STATES_ENSEMBLE_10,FDCB_LSTM_PT_ALLMODELS_STATES_ENSEMBLE_10,FDCB_LT100_LSTM_PT_ALLMODELS_STATES_ENSEMBLE_10,FDCB_GT100_LSTM_PT_ALLMODELS_STATES_ENSEMBLE_10,MDFB_LSTM_PT_ALLMODELS_STATES_ENSEMBLE_10,NSE_PRMSuncal,KGE_PRMSuncal,RR_PRMSuncal,FHV_PRMSuncal,FLV_PRMSuncal,FMS_PRMSuncal,FDCB_PRMSuncal,FDCB_LT100_PRMSuncal,FDCB_GT100_PRMSuncal,MDFB_PRMSuncal,NSE_PRMScalib,KGE_PRMScalib,RR_PRMScalib,FHV_PRMScalib,FLV_PRMScalib,FMS_PRMScalib,FDCB_PRMScalib,FDCB_LT100_PRMScalib,FDCB_GT100_PRMScalib,MDFB_PRMScalib,NSE_SACSMAuncal,KGE_SACSMAuncal,RR_SACSMAuncal,FHV_SACSMAuncal,FLV_SACSMAuncal,FMS_SACSMAuncal,FDCB_SACSMAuncal,FDCB_LT100_SACSMAuncal,FDCB_GT100_SACSMAuncal,MDFB_SACSMAuncal,NSE_SACSMAcalib,KGE_SACSMAcalib,RR_SACSMAcalib,FHV_SACSMAcalib,FLV_SACSMAcalib,FMS_SACSMAcalib,FDCB_SACSMAcalib,FDCB_LT100_SACSMAcalib,FDCB_GT100_SACSMAcalib,MDFB_SACSMAcalib,NSE_IHACRESuncal,KGE_IHACRESuncal,RR_IHACRESuncal,FHV_IHACRESuncal,FLV_IHACRESuncal,FMS_IHACRESuncal,FDCB_IHACRESuncal,FDCB_LT100_IHACRESuncal,FDCB_GT100_IHACRESuncal,MDFB_IHACRESuncal,NSE_IHACREScalib,KGE_IHACREScalib,RR_IHACREScalib,FHV_IHACREScalib,FLV_IHACREScalib,FMS_IHACREScalib,FDCB_IHACREScalib,FDCB_LT100_IHACREScalib,FDCB_GT100_IHACREScalib,MDFB_IHACREScalib
1997,0.995912877556679,0.984930982948253,0.0124593846246673,0.412221246098286,-347.210282427526,3.21806289623013,0.899430295708134,0.961007469028178,0.0644438254883286,1.25776200576972,-0.279653072550911,0.336946468537981,0.0934739881491629,-77.8867222700262,24.8942956664311,-6.9150067495421,0.903596486797021,0.951556807434991,0.253254538946154,2.8087389722327,0.241306843752294,0.327700362386266,0.170845932718269,-76.3007557878871,-165.82096358277,148.8966957758,0.740445936975589,0.766251076557006,0.390528244251579,3.20275127560169,0.326281873825479,0.157052216609981,0.415574127917147,-80.6785278436715,-196.384008171059,106.423998413959,0.639405703947983,0.646790917466355,0.539262208638854,1.41359806656067,0.591486921096126,0.558811118234629,0.0198093104135994,-59.3539409808113,-25.3022172323206,-1.30716901810727,0.47408718200701,0.48582071644807,0.314980454986237,0.809444205574213,0.641235856506684,0.534730212678902,0.419191781938286,-30.9733433753873,-258.391722186982,67.9044263425772,0.785079389022068,0.817567531677572,0.344540174613426,2.69152304662153,0.592559883848137,0.641580364577658,0.253399499532436,-2.3835517071813,100,550.777910394974,0.906912394062652,0.942827388029989,0.419905075865562,1.16777796225467
1998,0.996321140589719,0.964243691023519,0.0237426559265333,-2.21839999050629,-189.104031921282,-8.07484454498969,0.342004049774603,0.37890216640413,0.0422068521596976,0.964720219004354,-0.320159264006905,0.381229512378788,0.0207375279617905,-66.1698365608677,6.75855315029719,-17.6863056180033,0.636130904683855,0.702412815725128,0.0975903774735072,4.4358922239919,0.257177870109626,0.424450226871085,0.0880794494878354,-71.0468841966672,-82.0629215847884,5.79312531924696,0.551466322795614,0.580130581882945,0.318569217711048,6.04940708830597,0.397500453869106,0.362815050039544,0.218836592841851,-73.5197315398545,-117.214476494364,-10.1430293556448,0.479936569992079,0.51231542990542,0.216858333196183,2.5589997828764,0.610929308646444,0.619427102997851,0.0620648256440601,-51.6807014954219,-33.3586236761065,7.03867862902109,0.366559355852316,0.356248064768813,0.450338595905772,1.08721887289406,0.568856320721209,0.300388179720275,0.671157958941435,-30.2605015167673,-132.45024528523,-9.82049379514373,1.32644423070762,1.40128834045091,0.718335839043395,6.933590683664,0.504161174728258,0.310999472012205,0.595701274322337,5.54039407827347,27.2441084248724,110.320858823505,0.870916703608094,0.852458376507198,1.02089061130287,1.26056435445319
1999,0.986039766384841,0.915808664680437,0.0587356416602183,-8.5574651671963,-428.098589891475,6.69246538617714,0.296127241577292,0.308560275821254,0.0697151442925128,0.579396458759663,-0.192218963421842,0.425891186974888,0.221441678317755,-38.3743273400145,25.5982202923609,-26.0546904371003,0.409273233414631,0.413618893137037,0.330136482680295,1.11801699194531,0.369142512877674,0.334195759326966,0.360816041048854,-66.6720842051339,-183.33016498525,17.9121262556997,0.646703672575715,0.661152627882571,0.383580591724539,1.85126627421127,0.259565448162034,0.0156379905417643,0.61168634873108,-83.8468001847042,-242.025638152289,-30.2555125728331,0.659044731157357,0.658649340015531,0.666245011950617,0.995709698734916,0.52372213449273,0.453641158373967,0.339442484406163,-61.9656155458182,-15.9795689226313,-16.3837999052359,0.41662518671681,0.428136527142579,0.206997618963331,0.439767634323306,0.42599935485201,0.36065445958986,0.580250694438737,-7.83409559109079,-280.416782735574,-10.2605827739625,0.844780344090275,0.873108790943578,0.328904417182759,2.21769925272691,0.393528937773408,0.672561363201572,0.10811825308807,-17.4462875406126,100,479.092931640883,0.848139726182656,0.880240022451791,0.263576436228913,0.953810899938061
2000,0.994337223680811,0.980175089603925,0.00943943691393098,-1.55514097136982,-313.905819485654,-14.9735406164952,1.6741661833883,1.7778103217485,0.0535487472106967,2.46285526517719,-0.58516300772406,0.339841221166812,0.0387824719456102,-51.1429378021207,-8.84993863355926,-33.2649451877272,1.47955284304461,1.55445459572348,0.308361801156797,3.90627099934143,0.330941713619184,0.476472586544758,0.0608307540005164,-61.9898172173227,-132.391804439065,90.1068530494918,0.576262031376515,0.593511819466186,0.306538072156214,4.34557470091787,0.313850010644339,0.104816583078665,0.478729746586278,-82.1309401180025,-169.180945882943,30.7494139503896,0.408715164210305,0.395760035899837,0.611286261428543,1.94669411311138,0.62643210874359,0.61223700901932,0.0318921499713789,-56.102089398704,-57.5424104349071,-2.23456174420651,0.717298364009839,0.744741460905579,0.28818812164009,1.56586989977243,0.506364827040709,0.102743842303408,0.854748002664785,-6.41443616511972,-176.421401067224,3.95855665674554,1.93969428497472,2.03199604813924,0.496430351856697,5.51167316341356,0.46252927673114,0.397479710888303,0.436861911414524,4.43106956142803,100,141.570322378632,0.953668399435635,0.971935044744358,0.668044490971958,1.16636747605225
2001,0.976810877280472,0.91864794779463,0.0553856784591478,-7.91324203010678,-34.7018369000616,-44.6515995060946,3.80684225020821,3.90129081955013,0.0708766184612093,15.1226502013592,0.076863338892718,0.447690432332978,0.063041880800865,-68.6217167622839,79.1759100452051,-37.2276525600846,5.8034658631848,5.94311377603394,0.279615088263162,9.98760507451088,0.230107317788492,0.358487376978012,0.0704662079493621,-74.6085018006917,23.3559116996038,5.10129072290222,0.512780005360596,0.514610858536989,0.440359590827754,7.61821539531215,0.337501934578562,0.143276811053049,0.428938696674302,-80.3734277611035,20.8703346376411,-9.72507393990637,0.479170357845557,0.47293217720001,0.725925058936093,3.1966169901165,0.507658866048165,0.292608309094021,0.420244984332551,-67.0173938330805,63.7452603823571,-12.3911222170373,0.422323781385899,0.420055834842808,0.512033666868202,2.37828092585293,-0.125950771758772,-0.751404087287501,1.67468813729278,6.4240543911747,-4.10207721354887,-30.3359832390915,3.95593957510435,4.04728557965702,0.342697617242896,12.3134667930388,0.627628477140376,0.666822621802682,0.0839767800344404,8.39530604327588,100,300.228950560666,0.839928179049631,0.853399259532551,0.307072106614141,0.961612180057707
2002,0.946311803221957,0.91905526042169,0.00198130488428239,-14.7395052360584,-39.5161384581328,10.7551996488854,30.3319587590538,30.8366676394991,0.133544079074834,73.0411407094676,0.0627498213456883,0.430244884303615,0.00522993775631127,-71.0148325413972,74.6051853166143,15.0846467134805,21.1634371328236,21.513401560273,0.223898890433787,26.8756058215779,0.0830595529588973,0.277187225364091,0.106937227642546,-80.5166274821609,36.6712437962224,81.7632418546366,0.570733769459921,0.571899829436491,0.500964514195154,10.2911198304514,0.253172581207194,0.105740541038479,0.430617648162195,-83.7956467514237,36.4298803312105,68.2449760518688,0.528490327944081,0.525077442048134,0.732694667384907,3.5984435252938,0.386323819530526,0.305010956370222,0.403942371652629,-73.6568389649714,67.4394326487094,78.2392348012451,2.45453881554278,2.48845977610419,0.424934675285065,3.92594007294126,-0.83230334296381,-0.993504035357841,1.87288824077477,-1.08763899023989,17.8288186146983,15.3518196933256,1.83267850639448,1.85818158243849,0.306744456427598,3.48734105590481,0.445446624114657,0.702928176457871,0.106075703058331,-37.489881680177,100,781.184069484461,0.770524469300438,0.781012105941002,0.143014210306678,0.936375254654451
2003,0.988524128483202,0.924843738638595,0.0313464621012952,-6.44184163865983,-27.882461465886,36.9814570054525,27.1451451518074,28.5499942672761,0.0627760924934299,53.604907971919,-0.941717585321531,0.241613292651531,0.104345035122629,-45.9418800423205,65.6222847409859,77.834204680912,12.0968965313419,12.7029983467783,0.412600422649979,23.9925058763813,0.148346460472533,0.492265117527893,0.0879523618546916,-53.7540002924254,29.3300651948573,241.465676615197,0.542267311356954,0.560217967785593,0.196218545760428,9.44681457391817,0.281828874008811,0.0604066815602483,0.545656227770212,-80.3232355970919,24.7514284976373,159.49553966625,0.502651318147112,0.495272131771182,0.644905633283094,4.01621565375336,0.402611031405748,0.396304904491668,0.340438859520525,-60.9732429984065,40.4397171777951,119.685037705967,1.09377475713768,1.13618862419935,0.276129653226638,3.87332749550412,0.358909334364814,0.0926176183761268,0.862153396856596,-12.4784647379722,-0.758833750499822,167.776001453343,1.26059047747272,1.30774761439124,0.35150567132117,8.55754627768416,0.470965142027085,0.70339612219267,0.0949504701779971,-41.9156649599294,99.7372718836646,1486.5755356824,0.770542579149895,0.80332573697183,0.138556147804816,1.00027000295668
2004,0.992080213765499,0.948050265750926,0.0192664938048236,-5.52934431242968,-54.7800944019526,-46.7772208435099,51.2088083061091,52.3515123741297,0.0728012621878211,123.06291711623,-0.422387022951628,0.312809185493406,0.226744012410354,-68.0262448741432,67.891680790531,-34.1118121594155,70.7815975488461,72.3601316220885,0.142197771245877,154.517682761298,0.223450876043826,0.321664374315057,0.0510339249426032,-76.7893235107023,40.9484495705972,46.110014990252,0.871850921739498,0.882529488692899,0.393985050574784,216.930328904994,0.257436707893406,0.11404429015914,0.34898532619513,-84.2721651621849,39.1554447423992,25.8481745312216,0.608755575838051,0.6068438498287,0.694305314756542,73.7925432974915,0.550811157069665,0.549355813098031,0.100192607955678,-56.2936667370375,33.1993070971195,-22.6277164298645,5.5560578744916,5.6737642096063,0.288699378108788,20.2167846908582,0.322234767997132,-0.389042764719895,1.35835187071741,-2.8686700325079,14.3982386373001,10.1061173548692,2.11592508812112,2.15189484423946,0.506278501825514,9.02351688827148,0.75180966503464,0.799931289045993,0.152926049614706,-4.95529520288892,100,404.782528725208,0.745308056806538,0.754126055754787,0.350702603872362,1.09109185445577
2005,0.991796053927446,0.965352073759142,0.00586888114586037,-3.93807489564947,-26.571160351633,-0.499406049188532,30.4508876501268,32.9762952382439,0.0558034645739636,99.7463543642307,0.040380268496795,0.397758986297453,0.132015777216092,-77.1630263153401,67.0976880051553,-7.8182466348117,87.2904128946303,94.5290964926089,0.167685304673679,703.16314512256,0.299667763101638,0.336287217796819,0.194211099658404,-77.5981098434383,14.4882884097486,49.3313222204296,0.388913360301889,0.393156100739261,0.337848948609229,1345.94674814199,0.218664680429439,0.00518201010366226,0.557284944609242,-87.7853332470255,6.011877710164,-1.49723672585598,0.361933775803581,0.335077861778844,0.685163883887018,692.529826156623,0.490374958831414,0.402893081117898,0.237887666191336,-73.43592478607,50.094035074362,13.4577679151365,23.1603749532752,25.0561393954652,0.343495774059606,239.270052179836,0.417171720459756,0.161580553703916,0.804282063026037,-25.0959470324053,-14.0463773562121,-9.26285462657079,2.56166661034222,2.74149987985655,0.39724475940194,1864.32829675131,0.635204146915843,0.762257781245932,0.132188725400622,-23.4670300911291,93.8847699147481,301.03374800684,0.702067570987633,0.734180969970988,0.31555987608082,0.921573620460626
2006,0.987096335718804,0.94825172142903,0.0218886986628657,-3.36604096997063,-92.3491394211609,6.59776882497861,2.04627327578585,2.21745402579064,0.0629376895235021,3.36325031685778,-0.230224127382908,0.439892215182033,0.00463052730276548,-54.5975167272743,59.3073458248135,12.4247062293704,3.09190956868198,3.34395651612064,0.171641488013413,5.16971109213499,0.387952830755705,0.400411653698573,0.223360549298665,-69.6999174144803,5.69509105538398,87.1755738739356,0.566580618805174,0.59362768321749,0.253207734579725,3.43473432072845,0.293803467743013,0.111984514770545,0.493969363647114,-81.2251849459065,-1.83063234734385,56.880121951964,0.604504887309014,0.608281651598684,0.560746514849399,1.50285420436085,0.538148011381042,0.600648574359396,0.0368193170911968,-55.2900958039777,22.4959061413135,-2.3918186284483,0.91074027407941,0.97473747856847,0.169255422068238,2.34768513530214,0.279333210903235,0.232350476066804,0.696323634017848,-20.6495015740228,7.97463440804736,79.5050359872597,0.894497632582495,0.925098434579875,0.53995040944044,2.16671823079609,0.21219014955466,0.484620949657483,0.291720350257925,-0.892911624019492,100,818.289127005147,0.855813025455492,0.880227936749726,0.572936811839545,0.977880942215447
2007,0.974912316289442,0.9456091155866,0.00949437972919362,-11.920572891822,-52.5403429430693,-10.4559230614316,82.2983458663283,83.2091778384902,0.0957603787186898,167.07724489921,0.441820340703788,0.668287206865118,0.109238871698417,-30.0873394180579,71.2223162563703,-6.42206064951369,69.45244029294,70.2191605149195,0.255940259294777,94.2452867306923,0.340107122730438,0.413274834396772,0.143445058437761,-58.7231716498695,14.9993623636878,138.048443745674,0.851046640923667,0.855491862965469,0.449865351651015,83.9112833116434,0.310826464114544,0.166688490288773,0.297751013103211,-78.0040136483608,4.94059007887608,96.7124862490016,0.784082033827326,0.784224496676549,0.771224761684951,29.7522157376521,0.535646397812285,0.32153158401504,0.356742036276043,-58.7386060343588,62.6721921381548,99.4790576556676,18.4671979480119,18.6660710649878,0.518899140940291,21.841053289967,0.133185326518073,-0.726899391127918,1.68005689419779,7.93025894841917,-2.50650390124855,93.5556568176254,2.49648995131992,2.52067105853043,0.314145025571311,5.27668262033702,0.850933949828851,0.760830337204546,0.225477947555732,-1.94079955056357,100,-100,0.793883602661638,0.800894177909537,0.161179186538697,0.824845217787722
2008,0.988943305266765,0.923479980850922,0.0250411671902889,-9.43773890874725,-71.3318552823671,-35.0670596824374,88.0740398598862,92.0959959793543,0.0937497465218657,133.973817147677,0.211086010107276,0.441251814782788,0.128613254150725,-67.7211055879184,65.3104953248709,-20.2726834270255,79.259497702291,82.8676198000707,0.331826813361254,196.323747135591,0.327438977658855,0.316758550495622,0.18457818670657,-75.4682634665085,38.1153838462869,75.6072606718167,0.60717424944522,0.613495250725402,0.468902346441227,252.479895019991,0.238760635293056,0.0169025236036821,0.524256234404698,-86.2709073853959,37.3171272764496,34.6020818127181,0.436809132865878,0.423402367958702,0.730082115210369,61.0450185570413,0.480054783316257,0.437472767802934,0.200736789406014,-68.0241059297484,30.3029463234097,7.0572434239939,2.85636488229621,2.97033947190044,0.363170734703743,37.3325369941177,0.554479294309205,0.201623553817213,0.771558675308339,-16.0101207013962,15.0914885912455,28.8731777783789,1.35133282108106,1.3993842979992,0.30020676349682,28.9066900548995,0.664680607905494,0.808684076891481,0.0943912112220639,-31.4894887628761,100,289.645508684161,0.756491862296345,0.781614377060866,0.206936851822454,0.903465743830824
2009,0.991647427639251,0.878262268117904,0.117769298358585,-4.33916910764741,-54.9774829295834,-33.8240894528267,23.2694852213587,23.789605651167,0.0591110411647552,87.5972512302233,-0.577247633634108,0.263233474344602,0.363618796865893,3.75808927168902,69.6207179151185,-23.8035149818087,41.3351221786417,42.2553362504192,0.270569225570198,235.947492243008,0.30612582750817,0.403071503561823,0.317491597751058,-42.4675176465684,3.68055746001452,83.540623203927,1.06950870249893,1.08568672804579,0.347564312470182,445.614526530896,0.32155955496982,0.178317892637308,0.292273257976299,-75.7010649656859,0.284879635483482,31.6064115900099,0.620885563790227,0.619443712648875,0.685228170973062,131.120479979508,0.633292422884814,0.588274660499785,0.189237079393288,-36.382445175966,34.6913411775308,16.3087342166331,3.34111137028374,3.40825812259888,0.344687548220477,10.040897840551,0.135302851688876,-0.704822414440878,1.66886511839233,-9.07777913333741,-5.05857658664684,26.8871701864022,3.30551303952986,3.37047665845527,0.406511544983582,24.4841572567873,0.285335762517975,0.282914313899079,0.614068873177288,11.8928369530409,100,445.585163523526,0.909025003047473,0.918249257482173,0.497392648899021,1.05787326502733
2010,0.983038330453285,0.941929631581326,0.0218166533663545,-7.58029273865499,-126.444168392895,-6.16839789092477,1.27904946930363,1.31625600724644,0.0816754300529684,5.4941167002425,0.337375602511102,0.648574725057273,0.147921873598695,-7.1649594395061,57.9983746508193,-27.8893285910974,2.34795500024034,2.41298612238023,0.255135251374863,20.8887450818733,0.312973690853609,0.522988927838107,0.0828071087457991,-54.2720930034578,-41.5965256369972,2.00469670465485,0.476014278165031,0.484855219708961,0.191496704842185,38.7502140529416,0.313793381947193,0.149254307527957,0.420038708777034,-79.4175263729907,-46.5570693192255,-12.3017871730368,0.416009719608682,0.40855795855772,0.655820938885073,10.76695592245,0.448445585553479,0.544242891397181,0.110050964362909,-62.3435540568984,23.5499661211893,8.45174922574564,0.220849258677076,0.219923464411897,0.250643001392823,0.932300556855305,-0.0719310762083269,-0.536380134934668,1.46965444387918,8.36064039581451,-90.4779969995844,-18.3544324277927,2.44438909576593,2.50835468719015,0.385860062659542,29.9988829443121,0.52467433696718,0.492950134310757,0.403373505769157,2.35980824478472,100,596.262157012482,0.932844870214711,0.952060802467558,0.314441232259441,1.13726793308593
2011,0.993974143344341,0.943922022845949,0.0229415958331734,-5.62310327711751,-212.726790638037,-8.21812536296513,1.43139319827771,1.51530869974389,0.0567773647364177,1.95496879877489,-0.164009091486124,0.441240698882567,0.0353310562408591,-69.937700425669,40.6270591541608,-20.0190733669848,1.88627068271026,1.98533537366352,0.263496697571047,5.30541384887484,0.370267128332372,0.390661754606223,0.101947329863875,-73.8248597633765,-125.020764730985,16.4296408105972,0.538850160709922,0.548301585739472,0.384026817368728,8.46422183785884,0.260646244647838,0.0485732327318739,0.503887241644746,-85.2478905106923,-134.07303360942,-7.12219556172763,0.3801770727519,0.360633140225339,0.700325300806054,3.59256193919083,0.572806112418024,0.532267784872418,0.0935314596017992,-59.1410237639164,-27.4962704420694,-29.3075879665015,0.610715246546495,0.631518924572491,0.269931187453976,1.15270644082978,0.452128392487725,0.163968412123083,0.793258116519493,-36.5673892916423,-192.39482453156,-18.8277933762649,2.23228737181458,2.354292359455,0.233729479038229,10.4011869030776,0.533173831914987,0.757369516907123,0.0843964861620358,-22.4195464908281,70.2184325971715,262.887756529981,0.791806012346084,0.827482552271146,0.207390310716502,0.920588358269168
2012,0.939471714157598,0.808725698630473,0.165394909277874,-9.38645283745457,-257.383777169751,-26.5528958312186,3.22726436781205,3.2445248608461,0.0858546356141369,4.68277249737484,-0.384145049498417,0.190515742859774,0.0739704616202419,-82.2104091661487,45.2076750015806,2.63988189608057,1.04543816232534,1.04970796963904,0.268333231233301,3.83339659379063,-0.810759225567482,0.106611884653337,0.331447439125499,-80.5101419443517,-84.3513295804519,47.9080712372311,0.642364936324496,0.645441696050047,0.0823946662741583,5.58726614275278,0.307520898052709,0.262730411594162,0.173241560681453,-76.4434638357108,-96.403325385591,47.5718160139981,0.622132574022997,0.62141964372496,0.751885888265694,2.26940872562519,0.309516233665033,-0.0165355517059365,0.662789651911785,-80.7366505189863,-3.18533242272993,49.6486627483696,0.658139912662848,0.657363393326737,0.799466431834964,0.775381097272671,-4.11318296357684,-2.82621948711827,3.50365407465842,60.3286967707716,-150.984757360895,65.5817970716349,3.69014834312006,3.70740363237506,0.549685698709491,8.54308156533811,-0.158830709690486,0.313723545851698,0.368753569898572,8.3939694792393,100,-100,0.97720899285993,0.981324862500664,0.228120718246268,1.15235241720061
2013,0.994067124977208,0.880454091045073,0.11503452108967,-4.92675384320369,-122.755882341,-48.6768413324723,150.072169994367,152.57924485402,0.0655242250992955,224.443177068724,-1.26950974477154,-0.203210354192772,0.865278770725667,4.10853543020946,44.3260057656154,-6.92577258409324,86.6638097770397,88.1068335904419,0.32288494180425,202.341717943621,0.00164240850400799,0.0892387191026941,0.666513488678718,-34.6195225274512,10.6266845822993,146.016802559872,1.27847802831546,1.29660945678036,0.193614225165568,210.386864773831,0.25400159628075,0.20475542997717,0.0436451404653619,-69.0325209542555,2.23371445339044,53.7357253733217,0.889703618959699,0.894321567150162,0.613396385563669,90.615847055936,0.406623154278132,0.245245437082502,0.661031442510534,-7.04209768557028,24.6868367857896,62.6845985962001,11.0539753789213,11.2299979216891,0.521959903313599,35.3439158379392,0.0026122242796105,-1.27177090763946,2.2333956975849,19.8608740591895,-21.376129259533,53.6940587932364,3.46030674100838,3.50451892050377,0.814944667867597,32.2588140701846,0.60384862636003,0.526715058534621,0.429513914733832,13.3585898893554,100,359.298418641237,0.82892808148437,0.834414402090298,0.500663231896352,1.00550991803529
2014,0.266381796789839,-0.351441037519053,1.10113128963306,-64.5615265154875,-Inf,-95.9235261791031,569.100564952863,569.100564952863,NaN,658.795986547434,-0.588419118534778,-0.26202624220442,0.871719104714651,-77.2518555829987,-Inf,-81.2178620960092,60.5604729303723,60.5604729303723,NaN,381.861252230065,-3.71073996240865,-1.81897238883378,2.4824943797278,-64.3440015501819,-Inf,-84.1716614485112,55.4214295291901,55.4214295291901,NaN,715.366784268181,-0.107527911755865,-0.135818491272504,0.630558244893078,-78.830195305231,-Inf,-83.093711805393,55.9484186415461,55.9484186415461,NaN,302.007915776721,-0.0235816028204392,-0.767992170294254,0.994054465589329,-99.9966095285874,-Inf,-81.5286147582771,0.460289909614513,0.460289909614513,NaN,4.42886332488492,-26.3797554056917,-12.0670297079339,12.3004945363106,370.518316448438,-Inf,-63.6175732204533,99.6434608371593,99.6434608371593,NaN,279.332141132048,-0.11556049599368,-0.0782725542687528,0.465994291566025,-63.9274691947387,NaN,-100,0.345715015422042,0.345715015422042,NaN,0.401964282050547
2015,0.701151887286643,0.22989191230625,0.69379308602019,37.4057327530263,-270.51362978773,15.0555766280732,366.651453214191,371.734171495592,0.695736953316365,457.167142980052,-9.58622080778417,-1.82777782923672,1.51561655058957,-30.3608375034404,2.70877403074245,11.3025678924888,129.567016782319,131.344671859758,1.57585120668287,768.966671528063,-3.34392089804624,-0.927490924757875,1.42233888022632,-39.1099535641532,-103.232793892778,129.849015475685,30.5738159728589,30.9913224103513,0.513352473405895,1285.46576534543,0.322830173739721,0.320365426138052,0.407147595549818,-50.4816504128251,-118.22953443401,103.202042553338,32.698561794483,33.1491143144974,0.258780353451152,491.487112678533,-0.22144674840689,-0.57915103471388,1.47967774470017,27.0781761258889,-118.979221100718,130.506603965478,26.7182779304636,27.076383439883,0.934681252265292,99.9484153848276,-0.839269145557587,-2.12812592790535,2.98943950725311,82.3346892953329,-146.034887528211,77.2303285985896,51.0408590604688,51.7322705138376,1.25923441791599,1323.1836514591,0.0938336444203774,0.330716157330696,0.480448574634869,28.6973204565314,100,-100,0.587953080692334,0.581651991169069,1.0416315263675,0.652584958628508
2016,0.793630920198631,0.75857599653341,0.0931639542287845,-32.9280966440125,-51.2865733287932,18.2479006761156,66.2895770446568,70.1126038998655,0.151212449546345,134.861717378995,-0.0838812996946441,0.275654566235996,0.177856007499558,-68.9816241843092,46.2784494054022,9.20418582056181,61.293333222717,64.8135837410554,0.392999255462101,480.787815198768,0.19107244850059,0.232500953867603,0.223791153774409,-76.8693490363109,28.893804186193,128.815192413374,0.59467452139888,0.602327265934943,0.462282040924985,1013.85559497895,0.182463365712638,-0.0507225862152025,0.570000064751979,-87.4224681419447,24.8056053422294,68.3137036473445,0.41111572349015,0.392897818482492,0.72628548012264,348.799344855328,0.447661380944373,0.320720999099923,0.277503215801012,-67.2701907685182,22.223245737508,36.3142782216729,2.32127771464235,2.43147506671135,0.414863523848766,3.7348827140472,0.441108989846639,0.0962746324640158,0.870944350009056,-29.4807503443954,11.0736852987369,31.201953026263,1.6456038407903,1.7190420191547,0.37512335508626,617.404506675947,0.749106750859154,0.81040119098192,0.129992415093699,-22.826957660031,100,916.839119586388,0.742378641643271,0.772139372274369,0.227518001725273,0.957235428325462
2017,0.727875534510889,0.425085445782148,0.358375782816195,-49.1211888309076,-124.89241193847,15.4150541344378,1.16986429620033,1.26417153184417,0.280681788701234,2.79018384465957,0.138121191363629,0.0392198845411579,0.519103580756309,-85.8617868354856,52.7395771721772,-21.7040703509946,2.11525571916183,2.28383565859271,0.525787718813543,7.42561521692566,0.17387839372277,-0.0644308299739065,0.598226179294588,-88.5700553858356,-12.9665276212077,46.5578404004267,0.688103545463826,0.70639312851705,0.51565890524771,12.7087470608604,0.0889079749871725,-0.217442011968628,0.765557272465025,-92.9678275729881,-12.8605834142626,21.7277476407252,0.773790432317333,0.777857828433481,0.735440697507933,4.91323268386211,0.328338527096202,0.0851034607316919,0.534065644940851,-80.3265557658368,24.7996374802873,-12.5417469607285,0.291830123971999,0.283983267882009,0.365814767106191,0.718720590461292,0.616267132988719,0.553846605693452,0.160026826433556,-55.6596477551983,-75.732299306392,-14.4087078601891,1.01195468266875,1.07213151510799,0.44457311967025,18.0099076895988,0.741176286506097,0.795682550305194,0.049128227947881,-36.138944776236,98.121336239961,370.732917683572,0.819970896379121,0.849858465724443,0.53817381398036,0.955848553100273
2018,0.483006757661069,0.323377140764817,0.303961667974392,-58.5339780151977,-167.347443197201,-55.3554837592558,2.28416303239891,2.299992311181,0.374096726026627,4.76061497895317,0.0698033030859108,-0.0880271634036853,0.447373103270619,-87.3452533667097,50.5766279784123,0.425161484693331,1.08637225906974,1.0899437577818,0.655411414480651,3.02239069278727,-0.107407871351353,0.0161919925250025,0.216446872499857,-86.2097733553914,-14.4785786031376,57.7301544318,0.561716145619116,0.563113843667208,0.393060581149343,4.10537397162841,0.0611257245857377,-0.203796517994515,0.562919251444702,-92.7009947873515,-17.7664170925691,25.9576965182423,0.586776391107749,0.584852392649525,0.818938871733407,1.9342299831065,0.022913605983179,-0.373192567917169,0.840417111076148,-96.5052348482724,41.071506651669,7.42068689313817,0.713754668032188,0.712497675131289,0.865431811407327,0.663742210518631,-0.866596495622525,-1.00518232507783,1.88930184016894,-14.1886659734329,-51.0055792541053,62.1197725008912,1.97696167194402,1.98733778557303,0.724910627375767,5.0320281570356,0.479976802106734,0.519793038059036,0.242595829346589,-49.9561725839602,100,320.332774238193,0.890711219154632,0.894652807651787,0.415092873831283,0.958409103221715
2019,0.86720606861563,0.699157933806924,0.143195694842172,-34.9509596980032,-131.417297563763,25.7558027450981,2.97856586478762,3.2088072871433,0.207445888578157,5.99695213688683,0.394926622454604,0.441912214451672,0.239917693437519,-60.6486703994817,5.76423290405979,-23.7065487427575,1.51551876708529,1.61279099523882,0.344778021094592,6.38668381884901,0.387047759911875,0.259951746976877,0.341047009582506,-73.9319323707115,-13.1802695629952,19.0798281479948,0.581221370967568,0.594383278811467,0.422808408703495,10.6695796905672,0.218818031006643,-0.0394309011031633,0.623364974603579,-86.5976727139574,-11.3139431917237,-7.96885315320039,0.630357977114387,0.624029653103372,0.706523876818391,4.04585543630253,0.560248868768406,0.407215990758962,0.287172727111737,-66.5890583984887,-44.7761495284104,-20.914358907391,0.362433271057377,0.369983695031391,0.271558525370145,0.915413622829285,0.457214266247628,0.245912823719463,0.712624975552213,-32.5951115270859,-65.5699600903802,0.889670833296041,1.52587815269228,1.62508218694629,0.331886740420811,7.97368643248289,0.559202963189923,0.625799084166974,0.295033963644514,-17.7038766740944,98.0406362843393,506.57552037073,0.846293360216548,0.880556622372956,0.433910526405479,1.01099000811877
2020,0.759512201564705,0.802188717958353,0.156047419062247,-2.53679838671413,-37.8701512218808,-21.2307787078747,19.0196347234009,19.1216032838457,0.461356722460039,72.0233544289357,-0.184036409415115,0.310638090793979,0.209440885270481,-70.0781415857074,79.5175900326631,37.1264447152242,34.4302693396054,34.6184971280437,0.172811843841855,37.7638916433157,-0.126505039593518,0.174431036182573,0.410450865786711,-71.5622594933562,41.8777731341624,152.458408729395,0.825024387033566,0.827360272064251,0.399893311448997,3.260756761301,0.222935571891289,0.138553598331708,0.174581839212277,-79.8795635410494,38.1661121753378,102.812535419607,0.657163384076972,0.656361057975692,0.803186734509789,1.37915191941016,0.248236916332733,-0.00510193623433097,0.566022487834469,-81.2450609428194,70.4083328460243,31.3040515912648,6.09746588511399,6.12654476027973,0.805110604949445,7.75284793376117,-1.58450990472936,-2.31888252171154,3.19418681813838,43.626741384745,18.2565427193337,168.488831376678,2.79971294776397,2.81263433397898,0.44802065663154,5.46721393372825,0.333740355820692,0.685454919229806,0.00335537592615863,-27.7860689710744,100,513.386710574131,0.817976961407739,0.819991521328015,0.451327055917505,1.07814503622724
