Run_name,train_RMSE,test_RMSE,train_NRMSE,test_NRMSE,train_R2,test_R2,train_NSE,test_NSE,train_aNSE,test_aNSE,train_bNSE,test_bNSE,train_r,test_r,train_NSEL,test_NSEL,train_aNSEL,test_aNSEL,train_bNSEL,test_bNSEL,train_rL,test_rL,train_NSEH,test_NSEH,train_aNSEH,test_aNSEH,train_bNSEH,test_bNSEH,train_rH,test_rH,train_KGE,test_KGE,train_aKGE,test_aKGE,train_bKGE,test_bKGE,train_FHV,test_FHV,train_FLV,test_FLV,train_FMS,test_FMS,train_FMR,test_FMR,train_FMAR,test_FMAR,train_MI,test_MI,train_RR,test_RR,train_WRR,test_WRR,train_DRR,test_DRR,train_KGEL,test_KGEL,train_aKGEL,test_aKGEL,train_bKGEL,test_bKGEL,train_KGEH,test_KGEH,train_aKGEH,test_aKGEH,train_bKGEH,test_bKGEH,train_YVRMSE,test_YVRMSE,train_YVNSE,test_YVNSE,train_YVKGE,test_YVKGE,train_SQRTNSE,test_SQRTNSE,train_MOTOTNSE,test_MOTOTNSE,train_LOSSVAR,test_LOSSVAR
LSTM_PT_ALLMODELS_ENSEMBLE_10,5.27167381522587,41.2253842694537,0.0800040753602681,0.449229378490385,5.27167381522587,41.2253842694537,0.993598374146337,0.798100816170321,0.971207654670669,0.694728129292611,0.00228900508420526,-0.0465214392679225,0.997133781670745,0.923320338027768,-2.59474968244158,-14.2811652201787,2.12589668557593,3.96535802174516,0.760048844159354,0.854920652317751,0.588576991280361,0.274167497945508,0.987420358956051,0.412249530085671,0.985513203286762,0.558183445587545,-0.0615173000362068,-0.43887219029266,0.995658969899596,0.825009250544864,0.969862907943758,0.623208491547434,0.971207654670669,0.694728129292611,1.00842792741615,0.792874059479274,-3.27057013843893,-30.2000701117281,-16.0497742432468,2.98151178686671,-16.3811550779036,-23.324549562272,-12.8673441388694,-159.966541863582,19.0093871337257,193.548437874188,0.878287708673538,0.710505282019108,0.00842792741616561,0.207125940520728,0.006720314156697,0.214226457868398,0.340097920064044,0.444570620428599,-0.490844723079845,-2.21474492813773,2.12589668557593,3.96535802174516,1.8864004454197,2.00717621835518,0.963967032811769,0.436947556951315,0.985513203286762,0.558183445587545,0.967294298615611,0.697999298882718,15965945.5449233,264164918.932899,0.998360885612633,0.803094005312394,0.971673564875542,0.602718412646306,0.97697587073112,0.888441185739583,0.994547187838099,0.905237692422422,0.982247265863213,0.893480137744435
PRMS_uncal,73.293723430012,90.4660120723571,1.11232158480543,0.98580015924512,73.293723430012,90.4660120723571,-0.23744754160204,0.0277543008478363,1.07314111011516,0.662299007586249,0.000293384741511137,-0.0641745531134919,0.425938573263119,0.355213071974406,-289.802950074682,-6630.50243017923,16.8258946113057,81.2628738752507,3.46498247503976,6.21313577142126,0.15799834764057,0.0725095859579504,-1.8050447595459,-1.19995592699422,1.00324399422636,0.387190006597221,-0.989900397638467,-1.04920197249946,0.0941417364879306,0.0994280143952654,0.421296871852454,0.218060487852848,1.07314111011516,0.662299007586249,1.00108021835492,0.714277656059223,-52.6281010161311,-72.1986351190707,6.258964644002,49.2871009351368,-25.0950062914016,-29.4513999850546,-207.053773038168,-382.428449488372,282.721652824428,401.475745023256,0.122950570686323,0.160903813059984,0.00108021835493279,0.285722343940781,0.00783552591506024,0.317035935697632,0.839421494027039,0.639955384278773,-15.3553550026891,-79.6012808984513,16.8258946113057,81.2628738752507,5.04100609171208,8.31965308525676,-0.0476456551372948,-0.306839806776653,1.00324399422636,0.387190006597221,0.473718989838689,0.278013648809293,83353614.9375427,410810920.216628,0.955324558437234,0.523796468766588,0.939068450886177,0.378231560882218,0.477410038213957,0.479871458467493,0.883742040221252,0.704364558761816,0.599309638816146,0.54721938855579
PRMS_calib,55.1003647994902,83.2106229640247,0.836215193182966,0.906738823672388,55.1003647994902,83.2106229640247,0.300637767630594,0.177449283136376,0.647293967697681,0.41365108127236,-0.0228008027924112,-0.075898232453645,0.556275231878497,0.428283266126406,-546.73678540679,-2914.47300045022,23.0731672031987,53.6955007012113,4.46218076105947,6.27434186675,0.120277483319639,0.0757151046344991,-1.41575041735742,-1.31150548493434,0.416754396108367,0.139251157421401,-1.18644844374262,-1.1575160379208,0.211661681047823,0.285921540035442,0.426989589886943,0.114079834214842,0.647293967697681,0.41365108127236,0.916049329776303,0.662080687351787,-63.0775870953056,-79.6520405572905,20.0328911443829,30.5013129707921,45.2571169188719,26.3333726339365,-248.164994557252,-421.908341046512,259.95958359542,421.908341046512,0.237166752148395,0.237590438926527,0.0839506702236798,0.337919312648215,0.0985035043819121,0.372220944796875,0.415805612100889,0.808938660593524,-21.6953746463801,-52.2194344790629,23.0731672031987,53.6955007012113,6.20398003962629,8.39175957077254,-0.165989253365504,-0.373040921997512,0.416754396108367,0.139251157421401,0.369224129046944,0.203479594427095,120696202.678421,474216463.194624,0.906328561820352,0.36545575920491,0.792841066769994,0.257841461859109,0.520726142902836,0.457901511513911,0.878065849952685,0.597377009529948,0.62792805501779,0.499744160918722
SACSMA_uncal,53.5174844982338,84.1317649978465,0.812193055367411,0.91677642721904,53.5174844982338,84.1317649978465,0.340242082139712,0.159137202122203,0.387780469774998,0.17871744346404,-0.114227339718275,-0.139437216453524,0.649421108524459,0.588998863050114,-41.0812334797571,-90.0354729469169,6.45412730799846,9.46919614739077,1.49423103236168,1.89957918916159,0.21752114416625,0.171152328869291,-1.91508865831328,-1.62875894440069,0.352524884981191,0.0670444072307674,-1.41204308916881,-1.28146793734839,0.309748700790406,0.425055081684196,0.17865831539883,-0.108528045396165,0.387780469774998,0.17871744346404,0.579424381916466,0.379188067780991,-75.0713369882358,-88.1815307733349,19.0463630791758,30.8087722450718,16.2836423155129,2.49274976092658,-295.351784889021,-467.088138599035,299.037306591597,467.088138599035,0.438157882058689,0.460284828059394,0.420575618083525,0.62081193221901,0.429848539095492,0.631952132342526,0.680287077658428,0.878316501814392,-4.77897495633676,-7.79899907858959,6.45412730799846,9.46919614739077,2.74263412519266,3.23788135076526,-0.207990664015777,-0.406615098073889,0.352524884981191,0.0670444072307674,0.249286630117642,0.118184692266651,293191578.255362,634835147.415582,0.447257373865404,-0.137183577033645,0.467382689912359,-0.0166474848210398,0.619906395500244,0.485975716539965,0.704653079750881,0.307538803588941,0.645330400775435,0.432444642654658
SACSMA_calib,42.8942615980264,71.8368012295645,0.650972700074867,0.782799290800213,42.8942615980264,71.8368012295645,0.576170073126438,0.386945464510045,0.664651625688078,0.403437805879094,-0.0262126046573183,-0.0834129974949252,0.76628042606416,0.689906132750135,-9.47656561799702,-66.4168644045826,3.44629679508919,8.33546028807628,0.511237549624118,1.01110552598888,0.386186425746008,0.245106214008384,-0.671840129603488,-0.88802746493779,0.512556062649578,0.22389134545032,-0.937465888856295,-1.01064696448125,0.464803989821522,0.464123294139785,0.580002307670106,0.231907829687605,0.664651625688078,0.403437805879094,0.903487357470454,0.628622935367732,-49.8404179002312,-69.5455530348959,-4.63161539640724,-6.69945194013374,3.35137697595276,5.30435994801146,-196.086242459686,-368.375357402309,208.556575270925,368.375357402309,0.476965777381753,0.534675009922944,0.0965126425295298,0.371377064632274,0.0883699344681561,0.358804367824899,0.30456543875424,0.0314930861491672,-1.59164446680616,-6.46978874256109,3.44629679508919,8.33546028807628,1.59622640726901,2.19117655803805,0.12111258569848,-0.171822035226963,0.512556062649578,0.22389134545032,0.501595820997689,0.304544469651041,115193238.841131,434184544.46464,0.914675460388868,0.468066462930753,0.890065044173102,0.360800461558676,0.761294235444747,0.694215168930644,0.901907291189733,0.692932084630328,0.803478152168243,0.69383024364055
IHACRES_uncal,49.0550878167124,62.7357326071697,0.744470746873149,0.683625748253852,49.0550878167124,62.7357326071697,0.445678986847343,0.532442437162866,1.09531039298813,0.815411454077012,0.260616756081921,0.162434598944931,0.782114038952585,0.750379037088187,-794.428019149815,-1147.96004703976,27.2384978643883,32.8119612675667,8.31672244264328,9.23596682650275,0.306425789750151,0.213835999057722,0.361919633134615,0.187099971471084,0.653976618634234,0.384332571661787,-0.261382827008628,-0.473767166834387,0.656332011471634,0.734534413158445,0.011399126972413,0.212976908187894,1.09531039298813,0.815411454077012,1.95956934252705,1.72320245480398,-13.8964302433951,-32.6012947995001,0.987262106366368,8.72256501735962,-2.73260543969665,-1.58041657313112,-54.6724707542599,-172.685572253885,120.60378245535,214.654043506978,0.570961805666481,0.612953711555381,0.959569342527087,0.723202454803977,0.837500753540773,0.57550869965238,0.430388708879408,0.248206823768187,-26.9824294229458,-32.6305128037921,27.2384978643883,32.8119612675667,10.6993062146482,11.8808298360226,0.492899473337006,0.254478167741474,0.653976618634234,0.384332571661787,0.861035697566049,0.673987052004999,570597098.425174,485148443.122774,-1.09352953747466,0.335862601675173,-0.0306410656459053,0.275838491237581,0.322201748863453,0.408665243418966,0.439025435654591,0.795417252618857,0.357248854900795,0.524690846178934
IHACRES_calib,44.986996536714,49.1432892275764,0.682732503433766,0.535510090879499,44.986996536714,49.1432892275764,0.533805413849959,0.713097996877905,1.23411308594932,0.931319119669894,0.0698775557150957,0.0267193542606223,0.835306003110804,0.848886013413874,-4.61823968107797,-1.10769167769868,2.11575316078916,0.734026855149195,-0.743391192399875,-0.816682285614047,0.0971149064433956,0.0671510100830177,0.135158864582675,0.542623901674477,1.16270864332224,0.6567724735848,0.0111880088368134,-0.2451778991069,0.639530976560606,0.788338024583575,0.615126270250177,0.795783458200751,1.23411308594932,0.931319119669894,1.25728338117237,1.11896174040243,0.594811013954348,-16.8714033530742,100,100,452.127960498692,396.955651362132,2.34015406799795,-89.3660193765187,149.468146173689,183.318399799355,0.543206782210159,0.658081559222148,0.257283381172385,0.118961740402424,0.342673692784069,0.171742010798065,0.979806783437255,0.998256098934495,-0.676827312045859,-0.366249965057135,2.11575316078916,0.734026855149195,0.133026398069002,0.0378721419438784,0.604465678498888,0.562884052182385,1.16270864332224,0.6567724735848,1.00594811013954,0.831285966469258,268418343.517054,123803747.494895,0.536719139348149,0.956750983676625,0.441186829781782,0.854738460669413,0.621547658485572,0.724800769038476,0.661817918393393,0.939216557243887,0.633628736457919,0.789125505500099
