Water_Year,NSE_LSTM_PT_SACSMA_UNC_ENSEMBLE_10,KGE_LSTM_PT_SACSMA_UNC_ENSEMBLE_10,RR_LSTM_PT_SACSMA_UNC_ENSEMBLE_10,FHV_LSTM_PT_SACSMA_UNC_ENSEMBLE_10,FLV_LSTM_PT_SACSMA_UNC_ENSEMBLE_10,FMS_LSTM_PT_SACSMA_UNC_ENSEMBLE_10,FDCB_LSTM_PT_SACSMA_UNC_ENSEMBLE_10,FDCB_LT100_LSTM_PT_SACSMA_UNC_ENSEMBLE_10,FDCB_GT100_LSTM_PT_SACSMA_UNC_ENSEMBLE_10,MDFB_LSTM_PT_SACSMA_UNC_ENSEMBLE_10,NSE_PRMSuncal,KGE_PRMSuncal,RR_PRMSuncal,FHV_PRMSuncal,FLV_PRMSuncal,FMS_PRMSuncal,FDCB_PRMSuncal,FDCB_LT100_PRMSuncal,FDCB_GT100_PRMSuncal,MDFB_PRMSuncal,NSE_PRMScalib,KGE_PRMScalib,RR_PRMScalib,FHV_PRMScalib,FLV_PRMScalib,FMS_PRMScalib,FDCB_PRMScalib,FDCB_LT100_PRMScalib,FDCB_GT100_PRMScalib,MDFB_PRMScalib,NSE_SACSMAuncal,KGE_SACSMAuncal,RR_SACSMAuncal,FHV_SACSMAuncal,FLV_SACSMAuncal,FMS_SACSMAuncal,FDCB_SACSMAuncal,FDCB_LT100_SACSMAuncal,FDCB_GT100_SACSMAuncal,MDFB_SACSMAuncal,NSE_SACSMAcalib,KGE_SACSMAcalib,RR_SACSMAcalib,FHV_SACSMAcalib,FLV_SACSMAcalib,FMS_SACSMAcalib,FDCB_SACSMAcalib,FDCB_LT100_SACSMAcalib,FDCB_GT100_SACSMAcalib,MDFB_SACSMAcalib,NSE_IHACRESuncal,KGE_IHACRESuncal,RR_IHACRESuncal,FHV_IHACRESuncal,FLV_IHACRESuncal,FMS_IHACRESuncal,FDCB_IHACRESuncal,FDCB_LT100_IHACRESuncal,FDCB_GT100_IHACRESuncal,MDFB_IHACRESuncal,NSE_IHACREScalib,KGE_IHACREScalib,RR_IHACREScalib,FHV_IHACREScalib,FLV_IHACREScalib,FMS_IHACREScalib,FDCB_IHACREScalib,FDCB_LT100_IHACREScalib,FDCB_GT100_IHACREScalib,MDFB_IHACREScalib
1997,0.995727552,0.966543754,0.020925316,-2.966275235,-667.7603129,-7.026351234,0.246229988,0.280946363,0.066763982,0.3848358,0.559738924,0.767640905,0.084019475,-22.5956097,-14.33437974,-23.22939159,0.50970652,0.583044586,0.13058601,1.207128605,0.319039373,0.668935431,0.036281888,-15.48374441,20.30078606,-13.14020875,0.335916409,0.347439387,0.276348476,1.438094399,0.457152617,0.407812883,0.173571285,-70.08839909,-308.3672044,78.83843418,0.679480475,0.727279094,0.432385921,1.042103174,0.701662177,0.671455436,0.000727484,-48.88482652,-47.39431884,-15.29425481,0.406525519,0.420290542,0.335367347,0.65149945,0.674208851,0.637802937,0.280013848,-38.60479727,-516.7828782,47.26411432,0.615298809,0.566120404,0.869526154,1.682281963,0.755530544,0.73979537,0.090448184,-37.96396894,51.17236073,-36.72345697,1.108675015,1.285649874,0.193804979,1.340767061
1998,0.996178584,0.987951337,0.00795332,0.221433835,-459.4292281,-7.296385913,0.073009599,0.082669477,0.043053123,0.237963961,0.430187898,0.699256984,0.121949822,-19.8502482,-47.40818694,0.900252227,0.328849947,0.399602967,0.109436088,1.364603438,0.102764507,0.564009256,0.051282413,-17.13634054,-8.308411733,14.32590178,0.246023953,0.257447649,0.210597659,1.404884974,0.618391932,0.63488671,0.05185218,-60.76870824,-309.7012737,2.802809815,0.554897549,0.652306374,0.252820744,1.199438204,0.789240311,0.790991258,0.063520508,-37.78028385,-65.86399682,14.36765253,0.251187753,0.237781895,0.292760976,0.566127437,0.650322198,0.490006631,0.481559383,-31.56898613,-276.4035813,-4.98257209,1.105584194,1.178618838,0.879094735,2.796771617,0.814159591,0.830026826,0.137462067,-23.1546916,29.17941514,48.26142835,0.522813416,0.581946788,0.339433518,0.882418919
1999,0.974562076,0.911482568,0.069438229,-7.603028794,-462.8856793,26.93754233,0.152536653,0.162611915,0.07291751,0.304369403,-0.632051935,0.225712843,0.352672987,28.97362338,41.52812592,-0.645863034,0.354868783,0.340933224,0.464993688,0.776831002,-0.494251986,0.380853479,0.008782577,-12.82936092,52.22181384,13.54072553,0.337525416,0.347008793,0.262583611,0.884231203,0.424986788,0.329062542,0.327548503,-65.82463474,-268.5663893,13.52048464,0.580147009,0.628616704,0.197118196,0.777482147,0.556669094,0.668848999,0.072663341,-36.70497994,24.61289989,15.76099181,0.273701509,0.285327331,0.181829152,0.402943602,-0.36785497,-0.127326245,0.956912614,18.55387363,-284.6628217,30.676784,0.887583521,0.849121521,1.191527133,1.74375209,0.438450034,0.707378138,0.116923709,-11.17850132,70.38522007,58.16347396,0.628109107,0.661685983,0.362769897,0.840851829
2000,0.994268685,0.946888659,0.038882973,-4.257049435,-696.4763068,-7.653161287,0.129775817,0.13742396,0.061769359,0.422570035,-0.707708373,-0.110634736,0.604887844,14.58333839,-84.78390563,-24.89614001,0.621439024,0.646171487,0.401520635,1.303460557,-0.132923194,0.28379377,0.230135611,-5.580644595,-13.23567677,-14.71620395,0.191121649,0.168162303,0.395273672,1.206419404,0.527765531,0.469509795,0.111617456,-64.45302189,-441.327808,62.11410035,0.644394922,0.680488861,0.32345152,0.960872231,0.732369326,0.712791799,0.218155093,-32.22442403,-143.340152,-5.533047568,0.521493211,0.52399239,0.499270784,0.814820689,0.272632602,-0.091189971,1.007806198,1.454223254,-415.0037675,24.19692083,1.3375849,1.365645652,1.088071725,2.325727838,0.751100694,0.701377808,0.256964195,-9.64848501,32.49581102,-66.31952415,0.55151672,0.553494742,0.533928365,1.074635835
2001,0.972840905,0.883232088,0.089603114,-10.30383398,1.508811988,-1.001731734,0.162728148,0.165444979,0.11035368,3.220288647,0.478983702,0.652061828,0.133298777,7.244849022,85.97710881,-22.01713558,3.749992565,3.933063322,0.220795204,4.411695152,0.478180169,0.632910988,0.247263716,-28.65572015,83.18229813,-12.591272,1.169956173,1.205819025,0.478600068,2.288427457,0.44732618,0.247760883,0.377201293,-74.64456768,36.78490248,21.18981549,0.580099403,0.583802001,0.508721544,1.127022634,0.600372079,0.292487563,0.455107471,-62.47502818,83.45993973,-15.93084129,1.16802611,1.205774702,0.440317141,1.430517875,0.215133544,-0.233800858,1.18232195,-4.864679972,17.53105929,-6.874202217,2.015705685,2.094461392,0.497470671,3.626565355,0.811805242,0.703371609,0.218850444,-29.7438735,94.35378512,-54.44628963,5.52170273,5.802513534,0.108294445,5.718691157
2002,0.895760445,0.859732491,0.033996136,-22.54239797,-321.1265868,33.95253297,0.3513362,0.358205417,0.179115101,0.685665077,-1.044505616,-0.164677758,0.713073488,19.51112017,19.63878998,38.5822687,1.263689882,1.281962677,0.805564803,1.9342119,-0.320016495,0.422948535,0.124402542,-32.28612385,3.251964317,43.14565948,0.269080248,0.271038104,0.219993995,1.488527839,0.472768511,0.537960416,0.112088248,-60.26810429,-131.4903287,56.9944307,0.517972639,0.524924471,0.343680272,1.154675801,0.587518211,0.663333412,0.17404202,-44.86035969,3.226636317,54.70764618,0.331383287,0.336879484,0.193585766,0.58640239,-2.101405771,-1.190708749,1.882729773,25.2204631,-171.1234343,35.78117571,1.690055148,1.71599086,1.039809803,2.709600168,0.497824506,0.657404691,0.225239886,-40.31980136,78.47155923,64.51987814,0.982577193,1.017804497,0.099378354,1.196126742
2003,0.987714257,0.932483123,0.001622362,-8.839659375,-280.7750696,6.163842644,0.425901802,0.45669772,0.069093924,0.583334934,-0.049002156,0.484924286,0.220153093,-24.84669488,10.273735,-8.565313941,0.647001338,0.678605027,0.280834466,1.734074011,0.178338219,0.423761454,0.17166913,-63.43562194,29.63526061,53.02501228,0.309107373,0.323403454,0.143470023,2.010911475,0.368072933,0.246813921,0.332265895,-71.30804539,-192.8554366,45.030719,0.403727905,0.416461492,0.256193926,1.66107242,0.53497607,0.390317204,0.335701121,-54.6252551,-34.68947192,8.952723747,0.334780959,0.345108808,0.215120362,0.733609626,-0.007842372,-0.195351867,1.120147346,-17.81902135,-225.3264545,53.72974322,1.236210532,1.241264464,1.177654627,3.056133298,0.509178042,0.584285714,0.169071147,-42.09767221,47.32924832,36.45301293,0.55712245,0.585733474,0.225629204,0.962303101
2004,0.989964341,0.943903144,0.047460759,-5.310385326,-391.3745057,-2.47419563,0.591581771,0.622050898,0.064465868,1.010094714,0.261141842,0.235836243,0.637333421,9.61454142,2.644629611,-8.832728734,1.802064762,1.874758106,0.544469907,2.654345436,0.234296846,0.621610402,0.112140881,-24.32806276,47.07373671,22.30354579,0.413083741,0.426410944,0.182523132,1.976233512,0.413620137,0.311939099,0.157664138,-71.89467407,-135.8990913,69.2737034,0.797338353,0.825245152,0.314550741,1.429332138,0.710061254,0.618067549,0.012084459,-43.62264588,-14.95985205,-6.242895898,0.381363694,0.387045192,0.283073773,0.914028869,0.304119833,-0.302766806,1.268550161,-9.647086534,-177.3935089,49.14076536,1.835745613,1.875121706,1.154539191,3.127046668,0.768205485,0.719164074,0.082077311,-32.92147069,64.72326839,-50.69518237,0.962135927,0.997271602,0.354288757,1.451761042
2005,0.990796783,0.956752066,0.006013569,-4.026618263,-275.5546221,11.79013759,0.422453461,0.49050787,0.046938957,0.722890743,0.502241,0.75316609,0.055703566,-33.50466345,17.42702165,-25.67644484,1.093216635,1.275150617,0.089330916,2.634725739,0.424805627,0.625674216,0.169287634,-59.63984887,33.23711558,10.85515709,0.337118181,0.354876504,0.23913029,2.67256787,0.366116566,0.179372459,0.40732452,-79.57745371,-166.1762594,-8.132374424,0.610873103,0.649218167,0.399290514,1.901828055,0.645665603,0.509024909,0.196412716,-59.07209199,-11.27124074,-7.532455517,0.427558344,0.472241708,0.181001926,0.84247953,0.43319467,0.234623355,0.727816184,-35.55595373,-215.6802136,-11.89741369,1.974001131,2.185487995,0.807046826,5.05190157,0.69844845,0.665437287,0.160739398,-47.02271867,48.66815597,52.97754555,0.358829854,0.394128929,0.164054599,1.11574172
2006,0.991205348,0.96083375,0.027183771,-3.085812188,-658.1577006,4.296037559,0.26198112,0.307236935,0.049137363,0.38340786,0.285051848,0.577276369,0.263415802,-27.79759689,-57.5026018,13.09314722,1.044292493,1.226738807,0.186224671,1.66352991,0.023469121,0.557006622,0.018679266,-45.3574969,-3.930987485,41.4578612,0.397219798,0.428180238,0.251608979,1.194083121,0.505500608,0.496978278,0.143992241,-68.22670061,-349.346953,29.11960825,0.595579523,0.688214511,0.159905598,0.910098432,0.690323077,0.718629808,0.045704565,-49.07150898,-141.2087394,7.124552064,0.67607621,0.781413223,0.18066307,1.121302829,0.465558757,0.371467507,0.583976474,-30.97262952,-266.9949582,61.88519067,0.972682274,1.022371762,0.738986402,2.058999926,0.703337312,0.779114076,0.038341764,-39.99634992,28.75825035,49.30641506,0.728059209,0.85370857,0.137114556,1.185758761
2007,0.978242972,0.936603787,0.042779009,-2.624589589,-269.5453663,6.392612306,0.987822849,1.005962501,0.060109228,1.563748611,-0.023543939,-0.219727079,0.976270737,71.21004376,43.71599701,22.27216158,1.634561183,1.644030561,1.150270146,2.024703791,0.521428263,0.642885346,0.273282945,-7.141104102,42.52881323,15.88936352,0.361240105,0.362358343,0.304050201,1.272845701,0.471185783,0.436047082,0.167347551,-51.90286025,-126.4668961,145.5774339,0.786940235,0.796810728,0.282135014,1.062158208,0.743295436,0.697370426,0.035433332,-23.3154202,27.98188723,66.58547782,0.312300569,0.313662418,0.242651711,0.532456883,-1.310505971,-1.726683231,2.542523351,90.10670815,-149.6625702,99.39854312,2.257277057,2.270426335,1.58478542,2.932877123,0.713259681,0.804369029,0.058466574,20.29789952,72.93920935,-60.65466359,1.228899861,1.239629745,0.68014292,1.483509222
2008,0.990007239,0.942633651,0.049617055,-3.527336471,-385.4166222,-32.42247486,0.957153062,1.008267102,0.072880157,1.759209265,0.308713246,0.349480433,0.540533499,-2.170468474,5.60031568,-3.642780633,1.777705271,1.854695202,0.445779475,3.201094491,0.460051723,0.735851784,0.006882691,-33.52413701,47.21392156,7.92252632,0.445802724,0.457571111,0.24220963,2.465730378,0.368831089,0.272534798,0.224387395,-76.64534779,-102.3887721,85.20016669,0.799067198,0.821405678,0.412611478,1.654981878,0.590330548,0.54604463,0.059772104,-60.28777843,-56.77227945,8.714599934,0.338801387,0.337088027,0.368442515,1.266547487,0.277427353,-0.113079977,1.063112372,-7.307106344,-151.3252312,59.73152777,1.659399689,1.703776807,0.89167554,3.999290802,0.62888513,0.697963827,0.004371698,-46.30431689,46.40597975,-62.33842508,0.828658701,0.85554369,0.363548401,2.149234809
2009,0.995151009,0.954752247,0.026525192,-4.043982508,-350.5699922,-25.88762247,1.158629657,1.229383972,0.055505569,1.990663541,0.319447463,0.560484359,0.269150764,-13.66772941,19.36727574,-32.88419149,2.441217102,2.580741968,0.265897601,3.822201565,0.242619402,0.463294009,0.153129381,-41.95011051,35.26092662,-1.290073892,0.753532393,0.786295167,0.242730968,2.97982955,0.316096579,0.152262376,0.356586043,-79.76765046,-197.634842,13.4878283,0.743297736,0.764075061,0.419360336,1.91774656,0.512220296,0.354691714,0.265120979,-63.06772539,-33.72617044,-23.46465117,0.432063552,0.438405233,0.333190981,1.238919892,0.428981173,0.04175161,0.904233022,-29.58390942,-207.3268141,14.36454416,2.427067428,2.519793142,0.981389245,4.511056788,0.639701574,0.643448887,0.074381485,-38.41056881,56.34187909,-60.49731726,1.034502637,1.068681733,0.501619453,2.344732682
2010,0.993279101,0.950739552,0.030685404,-3.692951872,-339.6485541,-23.24819284,0.474549319,0.515266863,0.064906149,0.95052332,0.633348169,0.754660829,0.135000183,-30.6875206,35.6078095,-33.57511475,0.920286698,0.993268925,0.186041262,2.294504621,0.399511741,0.457897693,0.176692064,-58.35329002,34.88140002,-19.31894664,0.176796372,0.180610564,0.138423291,2.327216625,0.303328648,0.144973625,0.387630568,-80.35302257,-179.7774641,-26.91868584,0.469213932,0.478149496,0.379316743,1.503308522,0.532447714,0.356840889,0.301161463,-64.39893896,16.44190192,-20.89550208,0.189407112,0.187402229,0.20957745,0.528395497,0.300993952,-0.155918311,1.123261033,-23.98520422,-253.05481,-20.45923082,2.249531601,2.374421142,0.993067134,4.69345361,0.694737197,0.656841146,0.071314533,-43.82189337,61.198834,20.89980695,0.470933731,0.487262133,0.306660112,1.107818839
2011,0.994929134,0.967398156,0.004776463,-3.851035445,-505.8734831,3.491600255,0.607446961,0.680519586,0.045483682,0.855375234,0.444953187,0.641221087,0.052659685,-39.24285295,-5.183992171,-20.00396373,0.871715185,0.971031622,0.10792449,1.63467115,0.482230689,0.591333765,0.177217471,-39.04350105,4.160615963,10.69579889,0.223708709,0.224781433,0.215458945,1.578121516,0.286872262,0.144791082,0.364488545,-79.9614605,-352.7306121,5.616702119,0.568502963,0.596864769,0.350387175,1.241020881,0.554837027,0.483870711,0.188194054,-53.03218924,-94.79587753,-7.418065458,0.414258521,0.436655777,0.242012957,0.780647871,0.493182648,0.364547713,0.492358485,-46.96415674,-444.0387403,-2.71186236,1.872054372,2.026613108,0.683424091,3.744282627,0.564454869,0.451648737,0.28592876,-52.15346169,47.83307653,38.06059727,0.532746085,0.572277962,0.228727128,0.877601824
2012,0.966813634,0.8724152,0.11038787,-7.758422207,-313.1221315,-7.454541182,2.041765495,2.077969969,0.184993187,2.844038223,0.224906028,0.412587931,0.249044986,-46.69020764,36.28829785,42.93187826,1.010759433,1.0260931,0.224361342,2.117549438,0.094670588,0.363016434,0.130047129,-55.58192015,37.94471419,74.91376576,0.438803175,0.441946515,0.277594758,1.489494572,0.269512932,0.250816887,0.053866846,-74.11082978,-127.3166404,123.9399213,0.759595405,0.763613554,0.55352174,1.06682906,0.335456641,0.186816296,0.358229533,-73.13493987,33.10335074,28.79336463,0.403175409,0.40017942,0.556826845,0.960089994,-2.960283477,-2.277224735,3.041119123,42.82737871,-187.1762578,119.763883,2.611339706,2.632846102,1.508368832,3.911846847,0.291108733,0.590407321,0.151893357,-28.95537806,81.81572658,-65.75363836,1.461498858,1.482718914,0.373213155,1.802426477
2013,0.994560598,0.794105618,0.20583889,0.669833033,-418.1065454,-36.99381192,4.338628274,4.456822687,0.142726615,5.478020719,0.083294211,-0.465948232,1.317800745,57.7334457,19.15036099,22.63274259,3.268532748,3.324972388,1.2649255,4.56074328,0.626369636,0.604757882,0.342655844,-13.2346587,-7.255168888,10.33648903,1.290816762,1.315709156,0.407136768,4.149876046,0.345083966,0.314225871,0.093068127,-62.40548086,-136.7895045,61.17845629,0.898976914,0.911256101,0.463065774,2.600306153,0.573579872,0.545344388,0.104067356,-35.68920162,3.859368089,42.02264296,0.361908256,0.355725408,0.581399357,0.615666146,0.130431388,-0.986594491,1.950385704,15.22015913,-173.8128107,69.76960278,2.517836218,2.543589211,1.603604985,3.733790055,0.601023568,0.630914243,0.085212046,-19.21158761,71.81306392,-45.52608892,1.935012858,1.978568711,0.388780075,2.294335199
2014,0.794891157,0.410400291,0.550556169,-14.50820826,-434.3401177,-73.67117568,3.237526436,3.253665465,0.308292682,6.985187434,-1.050385354,-1.223075118,1.932122586,92.2110059,-5.842362053,32.92151294,2.057899958,2.065388232,0.698778262,4.310783836,-0.527465873,-0.588774825,1.470075814,-19.85322905,-5.440210665,39.3214301,1.071974554,1.0773292,0.10010628,4.49080501,0.230074168,-0.104123357,1.013390722,-25.50662225,-202.5357229,80.57518259,1.21838564,1.221764134,0.605188873,2.85268065,0.520445249,0.590369467,0.042448021,-24.07672806,-92.7729154,32.79445367,0.434254314,0.433685453,0.537502645,1.001183046,-14.15273924,-6.807144718,7.129790554,245.8753942,-209.4324509,172.0105797,4.289969064,4.305174786,1.530130568,6.551623574,-0.007972943,-0.205279684,0.548138229,-77.77153916,55.67499165,-55.32142422,0.585386366,0.584478385,0.750184802,1.008590047
2015,-0.660383104,-0.52666484,1.057102115,115.6896572,-324.7850323,-28.17471151,6.166325359,6.337107645,1.1424798,9.570809036,-2.408434846,-0.753469079,1.13163825,39.80777686,27.91483305,-9.684823249,3.154132118,3.228265869,0.973364252,6.578691205,0.043027638,0.524081626,0.167072995,-34.82589572,21.17248488,20.65064474,1.180649442,1.213616437,0.210870337,7.195034232,0.476997618,0.525282326,0.096435647,-52.93860727,-176.348024,59.15003501,0.645096467,0.656054412,0.322750247,4.07428278,0.620616255,0.725508245,0.03251049,-30.96455987,-7.215821157,61.7862572,0.353656137,0.356981202,0.2558438,0.960447149,-0.740394461,-1.296715769,2.086534005,64.90368389,-180.8076605,50.08332622,2.835633475,2.881761019,1.478714905,9.653916459,0.526795898,0.759506395,0.064060183,-14.7896237,19.77957532,-48.70881749,0.932429157,0.953160916,0.322569929,1.797885628
2016,0.847513322,0.906382989,0.024422237,-12.43796055,-189.9553456,15.62524974,2.998685136,3.292049846,0.134065022,5.724313432,0.360773747,0.620664507,0.224152342,-47.64084766,20.03497233,-15.64403515,3.185468071,3.493799571,0.174701652,8.683431274,0.337331886,0.681865691,0.049285538,-52.22749627,29.99435759,-3.455007145,1.597971443,1.733972964,0.269956584,10.87536418,0.347867591,0.174864272,0.366168741,-80.61398193,-56.25580295,38.87448395,0.62377043,0.64421672,0.424118415,5.590881445,0.651151144,0.532748982,0.111652195,-58.82593446,-36.15221551,-21.20618046,1.028732885,1.098952729,0.343056756,1.799908759,0.427706728,0.146589486,0.808642558,-38.34128237,-67.3403551,4.999384818,2.051447059,2.176294821,0.832345385,10.98491303,0.66909553,0.562645676,0.158584987,-53.73573299,40.87579992,48.24044258,1.442290774,1.563696762,0.256797009,2.482382447
2017,0.747982873,0.526049459,0.306833322,-37.38894588,-293.5989144,3.019481892,0.302778505,0.303297367,0.300930061,0.900729522,0.742463915,0.788685678,0.107713542,-30.74663029,16.91241076,-33.21804641,0.622271543,0.746069098,0.181242754,1.447956411,0.621729434,0.697131885,0.218842955,-33.9642265,27.17394293,-9.670245026,0.328497818,0.309592952,0.395846403,1.59877079,0.359947216,0.234664364,0.341842974,-77.73177457,-139.3567439,3.676434162,0.565665863,0.634180583,0.321582174,1.402030312,0.598623729,0.451894499,0.228037534,-61.97740042,-2.727281613,-16.38456779,0.288965791,0.313617707,0.201143341,0.563267787,0.65786438,0.592202714,0.151720623,-51.8287449,-192.5498147,-12.60827702,0.947850838,0.992877327,0.78744397,2.939790737,0.727147534,0.59895018,0.165477044,-49.16485267,40.42562601,26.28537836,0.55758824,0.669862922,0.157609687,1.152913977
2018,0.488921633,0.52794007,0.089981594,-50.42299571,-257.621697,-15.42534011,0.483001175,0.488046563,0.257850736,3.583346406,0.159176534,0.445434614,0.392901885,-46.03456142,51.50744542,45.43225251,1.102911036,1.121603673,0.268752107,1.647197635,0.033694609,0.437374609,0.098736966,-68.99401944,54.21314614,92.02320259,0.470628568,0.474922388,0.279016863,1.220637595,0.309905398,0.306581296,0.110744421,-73.78466022,-77.31473386,94.08336483,0.74941749,0.754200223,0.535988035,1.076330955,0.36710789,0.264640492,0.347775777,-70.84419354,44.81602447,18.45199902,0.39422513,0.393213288,0.439378586,0.575157663,-2.988357652,-1.757876934,2.448557715,16.23765632,-105.3450145,129.4863404,2.108161882,2.126380673,1.295148311,3.152034518,0.52555312,0.651569537,0.026288108,-47.61274114,72.75961132,-53.94412218,1.382378221,1.408027935,0.237759721,1.731280191
2019,0.766414792,0.743321235,0.155922197,-30.24074655,-222.5030267,-13.22998954,1.084264929,1.230304976,0.22455748,2.435019692,0.31130795,0.612307919,0.21247631,-28.16898805,7.917135561,-24.99468674,0.895179436,1.010119479,0.218551262,1.71815908,0.055705298,0.565546677,0.034978204,-51.49525054,17.85853911,6.043244307,0.294690049,0.323413422,0.125601513,1.644059363,0.408444656,0.320711891,0.262964909,-77.69788013,-99.01281037,-10.27270032,0.603226793,0.654596295,0.300825198,1.303555403,0.684011817,0.687319727,0.024073366,-49.17215323,-23.4743415,-30.21904344,0.391639328,0.408602663,0.291779695,0.59870182,0.514436864,0.341125067,0.619047174,-35.3323579,-109.6054916,0.980518753,1.261913544,1.33629136,0.82406678,2.424265835,0.686430534,0.751638494,0.025583269,-42.46150524,52.71655118,31.45067981,0.609555705,0.650938762,0.365942236,1.301042939
2020,0.587596597,0.716671834,0.095244159,-25.07787055,-484.8611027,-0.076809329,1.004273882,1.022913934,0.26488516,2.124753095,0.182462873,0.232793917,0.626288559,-51.66081283,24.3280067,62.34332412,1.321533612,1.348457236,0.253563188,2.073206062,0.245828279,0.495471775,0.114585681,-58.22446702,39.55679118,125.1060373,0.36677983,0.372815639,0.127359435,1.399728241,0.255492302,0.224768434,0.04521517,-78.07644666,-182.3748211,135.2369281,0.846767233,0.85448307,0.540705685,1.223477256,0.364257431,0.303227697,0.168597647,-72.11798606,3.760266405,51.52592379,0.224431632,0.219562872,0.417559101,0.613915496,-0.667145386,-1.080081942,1.980479849,3.040894226,-242.4414481,150.123202,1.909408078,1.93345339,0.955610724,3.242308915,0.494328223,0.500726677,0.26265865,-55.67343732,61.08988681,-55.60386901,0.767690903,0.780445677,0.261751533,1.104109421
