Run_name,train_RMSE,test_RMSE,train_NRMSE,test_NRMSE,train_R2,test_R2,train_NSE,test_NSE,train_aNSE,test_aNSE,train_bNSE,test_bNSE,train_r,test_r,train_NSEL,test_NSEL,train_aNSEL,test_aNSEL,train_bNSEL,test_bNSEL,train_rL,test_rL,train_NSEH,test_NSEH,train_aNSEH,test_aNSEH,train_bNSEH,test_bNSEH,train_rH,test_rH,train_KGE,test_KGE,train_aKGE,test_aKGE,train_bKGE,test_bKGE,train_FHV,test_FHV,train_FLV,test_FLV,train_FMS,test_FMS,train_FMR,test_FMR,train_FMAR,test_FMAR,train_MI,test_MI,train_RR,test_RR,train_WRR,test_WRR,train_DRR,test_DRR,train_KGEL,test_KGEL,train_aKGEL,test_aKGEL,train_bKGEL,test_bKGEL,train_KGEH,test_KGEH,train_aKGEH,test_aKGEH,train_bKGEH,test_bKGEH,train_YVRMSE,test_YVRMSE,train_YVNSE,test_YVNSE,train_YVKGE,test_YVKGE,train_SQRTNSE,test_SQRTNSE,train_MOTOTNSE,test_MOTOTNSE,train_LOSSVAR,test_LOSSVAR
LSTM_PT_PRMS_FLUXES_ENSEMBLE_10,14.588343569513,87.2892384007436,0.0915707686192375,0.424857441617553,14.588343569513,87.2892384007436,0.991613518629984,0.819413732454837,0.979652231325378,0.763790582330199,-0.00148062741525795,-0.0268445256152632,0.995932098741746,0.918779817524659,-1.57276663444453,-2.64501533227437,1.7304297074413,1.98144595166185,0.428324307522378,0.540972847977239,0.463794790428152,0.397181428577649,0.989679168787179,0.404005493036829,0.990609035739482,0.680675934443775,-0.0472377461763232,-0.404726403895865,0.995970119694074,0.760294813458349,0.978546752218659,0.72614320876481,0.979652231325378,0.763790582330199,0.9945536865969,0.887723844613381,-2.56884934865836,-25.2881780757368,5.10801724892781,-124.630578137033,-1.29790378052897,8.90155705815569,-24.4771965859077,-307.253126747263,38.9579677163645,398.04305507557,0.798137004521695,0.719832390300193,0.00544631340309813,0.112276155386618,0.00816859679070813,0.130257005262021,0.158056890073551,0.268005752594359,0.0293415613523652,-0.248360874376384,1.7304297074413,1.98144595166185,1.34804341716672,1.48143378214315,0.972353502163336,0.52737368848387,0.990609035739482,0.680675934443775,0.974311506513417,0.747118219242632,62301302.1784619,424925177.083895,0.996209323405988,0.902519295615927,0.960703747433815,0.726497283938325,0.968248042800265,0.911304441851686,0.997498843743494,0.935302424337507,0.977023283083234,0.918503836597432
PRMS_uncal,127.299077902988,132.603149046047,0.799054008602976,0.645411000099352,127.299077902988,132.603149046047,0.361415553451951,0.583254433024248,1.15263816080393,0.981886607835041,0.0723918558409501,0.0339734945336213,0.735370265761528,0.788538338681689,-54.114428861472,-839.898124760239,7.25977751124153,28.9061103871246,2.44923222024687,3.25731435423189,0.316139171700324,0.108684017421049,-0.359168313156812,0.304696985399522,1.25866264444971,1.03111388038643,-0.293943846130833,-0.431598509947556,0.521240130619691,0.755787161993865,0.594740877347686,0.744589569230492,1.15263816080393,0.981886607835041,1.26628490778899,1.14209278293652,-15.9850441394215,-26.9672051828491,59.7788328923209,34.4697100934925,-22.698266074314,-11.4577730127804,-152.312967687023,-327.653423162791,470.780733305343,541.665832511628,0.298631408259412,0.436485174077703,0.266284907788997,0.142092782936518,0.287328503670307,0.125322542200416,0.869598391737712,1.03826270182788,-5.60403404839785,-27.0704217966637,7.25977751124153,28.9061103871246,2.99017225125619,3.8988167799006,0.432840816192939,0.634854824299841,1.25866264444971,1.03111388038643,0.840149558605785,0.730327948171509,425822851.810847,389690903.574149,0.822915555335209,0.918015025263721,0.729811311709718,0.786411845560568,0.656123983287194,0.688933615611307,0.835097561854495,0.944239125779466,0.709816056857384,0.765525268661754
PRMS_calib,103.197814769513,128.17574421155,0.647770816010851,0.62386176991414,103.197814769513,128.17574421155,0.580329131946533,0.610618773542811,0.681160463216932,0.576333330992443,-0.0378535563494238,-0.0484697088772536,0.767617818995684,0.819950206378236,-44.8226042944454,-122.871467416229,6.86042604066029,11.1708130451857,0.546978394142456,0.928982761624939,0.185272924150385,0.124398394926785,-0.56528823890636,-0.251663977636247,0.710934177884379,0.524656696044891,-0.914586677567752,-0.892234826535807,0.550713664383198,0.799225493428282,0.581612783888546,0.497001157782823,0.681160463216932,0.576333330992443,0.860760155339326,0.797277379997636,-49.7363989846556,-55.7487551136323,40.0054485154648,-23.1463797393945,64.1592913795243,59.0010730452065,-473.911642992366,-677.351261511628,506.549029374046,684.994771046512,0.356263929303053,0.512330406489257,0.139239844660677,0.202722620002365,0.11592354954474,0.191243011622663,0.809788934466182,0.929698447575526,-4.93345739290884,-9.24185601164155,6.86042604066029,11.1708130451857,1.44445815021544,1.82673961576294,0.270076579850024,0.240359276515503,0.710934177884379,0.524656696044891,0.502636010153444,0.442512448863677,289608150.488429,558018090.112465,0.918088657157762,0.831891262260144,0.820095971521229,0.624371136078379,0.699102432378223,0.713908373545777,0.931666118392784,0.873091509600812,0.768871538182591,0.761663314362288
SACSMA_uncal,115.746329900017,159.990510065276,0.726537618427798,0.778711786639226,115.746329900017,159.990510065276,0.472062782161403,0.393331062003642,0.538336365903293,0.418008591168973,-0.0570618114251623,-0.0675977711418537,0.71063875595893,0.684954569794222,-18.0037262959543,-18.5135037719288,4.52368483835791,4.54120140628191,0.656329165598793,0.608668465252758,0.319526615893636,0.273029696926287,-1.22159046303738,-1.14869808127186,0.522418668799569,0.260849826784315,-1.12836495058565,-1.13643946603019,0.319984896886379,0.463080782239269,0.416117123763504,0.280346586876061,0.538336365903293,0.418008591168973,0.790104853410498,0.717275024141362,-61.3619362266203,-71.007187355785,33.4716180441772,-41.0029562549894,24.3874308682559,30.2295585382681,-584.685192494979,-862.74227709297,623.296717435463,865.05304586695,0.407715364832916,0.523419261347858,0.209895146589503,0.28272497585864,0.221799629502918,0.272695411168462,0.781573314268323,0.900716534187095,-2.62819816599305,-2.65540821526395,4.52368483835791,4.54120140628191,1.533313289882,1.54167887056363,-0.0329729861529715,-0.157077046087911,0.522418668799569,0.260849826784315,0.386380637733797,0.28992812644215,395453481.559395,677118084.41703,0.847273889260107,0.752473012319849,0.756412694591575,0.531784723164506,0.694815489372569,0.66965761231817,0.853903706567727,0.720451678028275,0.742541954531116,0.684895832031202
SACSMA_calib,90.1464684505341,124.730217218369,0.565847751322246,0.607091572233795,90.1464684505341,124.730217218369,0.679767610368944,0.631271530604399,0.718059478805188,0.585224643460482,-0.0209416670013914,-0.0358415686409879,0.832671722123856,0.833051572109609,-4.63642875159006,-5.94624076735428,2.6443637443688,2.87661991830192,0.388752866056194,0.481001013168104,0.474102319661489,0.445008292537871,-0.255994599864072,-0.267479471784994,0.642243307176263,0.378974695882064,-0.743032272631888,-0.780653446265454,0.554949904214228,0.659769837204562,0.663216605405774,0.528425868729357,0.718059478805188,0.585224643460482,0.922968546646115,0.850094071777983,-40.4070499565716,-48.7769099682406,31.8355870331972,-9.86970105461171,-3.1986298881306,1.96734481667802,-385.017247414742,-592.642856908348,451.154990855835,606.945801028924,0.522547447577599,0.654989384532834,0.0770314533538821,0.149905928222016,0.0829521763797104,0.150048251777252,0.356796243307328,0.53978747938554,-0.755074432600253,-1.00323626503224,2.6443637443688,2.87661991830192,1.31588885701633,1.42806240248485,0.300477014217267,0.140146706329754,0.642243307176263,0.378974695882064,0.595929500434284,0.512230900317593,246348802.806408,403663428.498404,0.940731573474285,0.912030415716815,0.900592886259765,0.747148533263293,0.833233993595835,0.836190553875334,0.952121668177923,0.921004726981666,0.868900295970461,0.861634805807233
IHACRES_uncal,116.685461768803,136.026128516826,0.732432532175184,0.662071453636455,116.685461768803,136.026128516826,0.463460970504254,0.561461235663401,1.03814688018567,0.834622700765462,0.23257982095745,0.157064178811093,0.768345765199947,0.768453043417412,-409.802023756502,-492.354659468636,19.87367122408,21.8725908178962,5.26773490722533,4.88170327848369,0.324973952518935,0.226418828154657,0.253237226000832,0.191763266692549,0.605992912527455,0.423021816804156,-0.347653231655944,-0.509224941835804,0.612430528296751,0.751964542849476,0.11285346050169,0.284108596617029,1.03814688018567,0.834622700765462,1.85551745369404,1.6569146498845,-18.9058295534422,-31.8174719657377,22.9276725271678,-57.7460370679537,7.72644070477447,22.2113427499094,-180.143575504323,-386.584502742255,325.336553609411,475.817114085026,0.522699065661682,0.636602617978168,0.855517453694038,0.656914649884497,0.772317363731803,0.523561370527443,0.0744827329796192,0.45027255116486,-18.3647352582823,-20.3339522460942,19.87367122408,21.8725908178962,5.28040254928411,5.34442667769513,0.415881245391561,0.295968350060243,0.605992912527455,0.423021816804156,0.810941704465578,0.681825280342623,1211371700.01828,1048278766.41634,-0.433102760283629,0.406736938664505,0.114347613214363,0.342228592606973,0.354183335352885,0.450048266365358,0.555425118561467,0.798783702204448,0.414555870315459,0.554668897117085
IHACRES_calib,84.7696475205567,108.99664950693,0.532097543634858,0.530512563780198,84.7696475205567,108.99664950693,0.716829129693542,0.718427906620983,0.844187003383324,0.692189696704928,-0.0102389249797106,-0.0301155108115689,0.846723339840309,0.865703322854758,-0.839610208284629,-1.28227989398549,1.29046983780929,1.41783365996834,0.533729347809763,0.613170031139537,0.430324447007292,0.389409577318041,0.0991093642243984,0.165100660661249,0.762203005594377,0.516361118744183,-0.517584256067057,-0.622885621525243,0.623204684353483,0.802687989832588,0.778212034100679,0.641324762410782,0.844187003383324,0.692189696704928,0.962337321478939,0.874043079773978,-28.1468970621653,-38.9192362206227,66.2886416308788,14.3174064580481,-23.4597385215944,-19.3098067595169,-268.196783526349,-472.871433584021,376.240036324526,503.914667518657,0.512456534364544,0.664493147438379,0.0376626785210615,0.125956920226019,0.0226759147820344,0.139363731206358,0.659525110775992,1.05287321338838,0.227347401355226,0.0806645072909787,1.29046983780929,1.41783365996834,1.43369237465976,1.54568499748579,0.472983015582686,0.34860972403762,0.762203005594377,0.516361118744183,0.718531029378347,0.610807637793772,258913506.290252,308213950.423414,0.934531574293687,0.948714060655354,0.924795409660733,0.802961876538604,0.800730552074836,0.826745764053169,0.950886392077223,0.935301241419767,0.845777304075552,0.859312407263148
